prologues:=3;
outputformat:="svg";
outputtemplate:=("%j" & "." & outputformat);
verbatimtex
%&latex
\documentclass{minimal}
\begin{document}
etex
beginfig(0);
z1=(1.72cm,0cm);
z2=(1.72cm,3cm);
z3=(-0.08cm,1cm);
z4=(0.81cm,1.95cm);
z5=(0.81cm,0.05cm);
z6=(1.72cm,1.25cm);
z8=(2.15cm,0.75cm);
pickup pencircle scaled 8;
linejoin:=rounded; linecap:=butt;
draw z1--z2;
draw z6..z4..z3..{dir 0}z5--z8;
endfig;
end
