<?xml version="1.0" encoding="UTF-8" standalone="no"?>
<!-- Created by MetaPost 2.000 on 2021.05.07:1603 -->

<svg
   version="1.1"
   width="74.613907"
   height="107.212585"
   viewBox="0 0 74.613907 107.212585"
   id="svg22"
   sodipodi:docname="103_2.svg"
   inkscape:version="1.1 (ce6663b3b7, 2021-05-25)"
   xmlns:inkscape="http://www.inkscape.org/namespaces/inkscape"
   xmlns:sodipodi="http://sodipodi.sourceforge.net/DTD/sodipodi-0.dtd"
   xmlns="http://www.w3.org/2000/svg"
   xmlns:svg="http://www.w3.org/2000/svg">
  <defs
     id="defs26">
    <inkscape:path-effect
       effect="taper_stroke"
       id="path-effect46"
       is_visible="true"
       lpeversion="1"
       stroke_width="9"
       attach_start="0.3"
       end_offset="0.2"
       start_smoothing="0.7"
       end_smoothing="0.7"
       jointype="extrapolated"
       start_shape="center"
       end_shape="center"
       miter_limit="100" />
    <inkscape:path-effect
       effect="taper_stroke"
       id="path-effect44"
       is_visible="true"
       lpeversion="1"
       stroke_width="9"
       attach_start="0.3"
       end_offset="0.3"
       start_smoothing="0.7"
       end_smoothing="0.7"
       jointype="extrapolated"
       start_shape="center"
       end_shape="center"
       miter_limit="100" />
    <inkscape:path-effect
       effect="taper_stroke"
       id="path-effect42"
       is_visible="true"
       lpeversion="1"
       stroke_width="9"
       attach_start="0.3"
       end_offset="0.3"
       start_smoothing="0.7"
       end_smoothing="0.7"
       jointype="extrapolated"
       start_shape="center"
       end_shape="center"
       miter_limit="100" />
    <inkscape:path-effect
       effect="taper_stroke"
       id="path-effect40"
       is_visible="true"
       lpeversion="1"
       stroke_width="9"
       attach_start="0.3"
       end_offset="0.3"
       start_smoothing="0.7"
       end_smoothing="0.7"
       jointype="extrapolated"
       start_shape="center"
       end_shape="center"
       miter_limit="100" />
    <inkscape:path-effect
       effect="taper_stroke"
       id="path-effect38"
       is_visible="true"
       lpeversion="1"
       stroke_width="9"
       attach_start="0.3"
       end_offset="0.3"
       start_smoothing="0.7"
       end_smoothing="0.7"
       jointype="extrapolated"
       start_shape="center"
       end_shape="center"
       miter_limit="100" />
    <inkscape:path-effect
       effect="taper_stroke"
       id="path-effect36"
       is_visible="true"
       lpeversion="1"
       stroke_width="9"
       attach_start="0.5"
       end_offset="0.5"
       start_smoothing="0.7"
       end_smoothing="0.7"
       jointype="extrapolated"
       start_shape="center"
       end_shape="center"
       miter_limit="100" />
    <inkscape:path-effect
       effect="taper_stroke"
       id="path-effect34"
       is_visible="true"
       lpeversion="1"
       stroke_width="9"
       attach_start="0.3"
       end_offset="0.3"
       start_smoothing="0.7"
       end_smoothing="0.7"
       jointype="extrapolated"
       start_shape="center"
       end_shape="center"
       miter_limit="100" />
    <inkscape:path-effect
       effect="taper_stroke"
       id="path-effect32"
       is_visible="true"
       lpeversion="1"
       stroke_width="9"
       attach_start="0.2"
       end_offset="0.2"
       start_smoothing="0.7"
       end_smoothing="0.7"
       jointype="extrapolated"
       start_shape="center"
       end_shape="center"
       miter_limit="100" />
    <inkscape:path-effect
       effect="taper_stroke"
       id="path-effect30"
       is_visible="true"
       lpeversion="1"
       stroke_width="9"
       attach_start="0.2"
       end_offset="0.2"
       start_smoothing="0.7"
       end_smoothing="0.7"
       jointype="extrapolated"
       start_shape="center"
       end_shape="center"
       miter_limit="100" />
    <inkscape:path-effect
       effect="taper_stroke"
       id="path-effect28"
       is_visible="true"
       lpeversion="1"
       stroke_width="9"
       attach_start="0.2"
       end_offset="0.2"
       start_smoothing="0.7"
       end_smoothing="0.7"
       jointype="extrapolated"
       start_shape="center"
       end_shape="center"
       miter_limit="100" />
  </defs>
  <sodipodi:namedview
     id="namedview24"
     pagecolor="#ffffff"
     bordercolor="#666666"
     borderopacity="1.0"
     inkscape:pageshadow="2"
     inkscape:pageopacity="0.0"
     inkscape:pagecheckerboard="0"
     showgrid="false"
     inkscape:zoom="7.8349011"
     inkscape:cx="35.92898"
     inkscape:cy="53.606293"
     inkscape:window-width="1853"
     inkscape:window-height="1025"
     inkscape:window-x="67"
     inkscape:window-y="27"
     inkscape:window-maximized="1"
     inkscape:current-layer="svg22" />
  <!-- Original BoundingBox: -8.251801 -46.519684 66.362106 60.692902 -->
  <path
     d="m 44.747197,18.162552 c 0.760575,4.209431 3.689493,5.987626 5.470631,6.45534 1.924669,0.505404 3.136664,-0.05095 3.136664,-0.05095 0,0 0.159607,-1.291108 0.279778,-2.8791 0.125999,-1.66501 0.246983,-3.332607 -0.01828,-5.056464 -0.386442,-2.238327 0.233582,-4.563454 1.683217,-6.312166 1.088382,-1.3628901 1.81379,-2.8693088 2.533561,-4.3759821 0.686477,-1.4369794 1.190929,-2.6361299 1.190929,-2.6361299 0,0 -0.77405,-1.0859606 -2.694818,-1.6059917 C 54.55135,1.2198561 51.125925,1.3035848 48.37038,4.5753994 45.263588,8.3231605 43.918992,13.365475 44.747197,18.162552 Z"
     style="stroke:none;stroke-width:8;stroke-linecap:round;stroke-linejoin:round;stroke-miterlimit:10;fill:#000000;fill-rule:nonzero"
     id="path2"
     inkscape:path-effect="#path-effect34"
     inkscape:original-d="M53.354492 24.566940C45.462006 17.944244,48.881577 5.120636,59.023697 3.307098" />
  <path
     d="m 58.581457,30.81172 c -0.848078,-1.676822 -2.043173,-2.992548 -3.173845,-4.193905 -1.101005,-1.169836 -2.05312,-2.050875 -2.05312,-2.050875 0,0 -1.279186,0.36001 -2.444281,1.956649 -1.091669,1.496015 -2.21243,4.624956 -0.378597,8.313056 1.85018,3.679922 5.025788,4.660675 6.877601,4.684949 1.976367,0.02591 3.031886,-0.781436 3.031886,-0.781436 0,0 -0.133561,-1.290316 -0.408826,-2.87302 -0.282683,-1.625352 -0.618206,-3.370863 -1.450818,-5.055418 z"
     style="stroke:none;stroke-width:8;stroke-linecap:round;stroke-linejoin:round;stroke-miterlimit:10;fill:#000000;fill-rule:nonzero"
     id="path4"
     inkscape:path-effect="#path-effect36"
     inkscape:original-d="M53.354492 24.566940C52.337173 30.336517,55.215057 36.092270,60.441101 38.740158" />
  <path
     d="m 44.852304,24.65149 c 4.369475,2.810485 8.502188,-0.08455 8.502188,-0.08455 0,0 0.366778,-4.911838 -3.633484,-7.484844 C 43.9278,13.355852 38.410159,9.2176207 33.210867,4.6994885 29.620709,1.5796777 25.008041,3.307098 25.008041,3.307098 c 0,0 -1.622075,4.7780146 2.299443,8.185775 5.525129,4.801281 11.388556,9.198852 17.54482,13.158617 z"
     style="stroke:none;stroke-width:8;stroke-linecap:round;stroke-linejoin:round;stroke-miterlimit:10;fill:#000000;fill-rule:nonzero"
     id="path6"
     inkscape:path-effect="#path-effect28"
     inkscape:original-d="M53.354492 24.566940C43.088989 18.640167,33.572083 11.502487,25.008041 3.307098" />
  <path
     d="m 26.007851,12.677774 c 2.539655,-5.4936418 -0.99981,-9.370676 -0.99981,-9.370676 0,0 -4.951942,0.7972484 -7.169483,5.5940832 C 14.605181,15.895424 10.505033,22.455644 5.6349296,28.426935 2.2948873,32.52221 3.748199,37.322754 3.748199,37.322754 c 0,0 5.0359741,1.482628 8.86121,-3.207529 5.346922,-6.555924 9.848494,-13.75842 13.398442,-21.437451 z"
     style="stroke:none;stroke-width:8;stroke-linecap:round;stroke-linejoin:round;stroke-miterlimit:10;fill:#000000;fill-rule:nonzero"
     id="path8"
     inkscape:path-effect="#path-effect30"
     inkscape:original-d="M25.008041 3.307098C20.384293 16.010605,13.140976 27.599884,3.748199 37.322754" />
  <path
     d="m 12.788711,32.931875 c -3.4696338,-0.64596 -5.9743435,0.674084 -7.2996403,1.891128 -1.3676108,1.255903 -1.7408717,2.499751 -1.7408717,2.499751 0,0 0.8379452,0.97119 2.1461428,1.982316 1.3327403,1.030096 3.0109001,2.053038 5.2388252,2.473227 6.330074,1.184627 11.652262,5.666501 13.89681,11.702657 0.79319,2.123925 2.086788,3.603532 3.328653,4.74154 C 29.577627,59.339546 30.677246,60 30.677246,60 c 0,0 1.162188,-0.579484 2.167043,-2.140867 0.973766,-1.513073 1.848325,-4.205884 0.621353,-7.514986 C 30.120169,41.347327 22.223613,34.697549 12.788711,32.931875 Z"
     style="stroke:none;stroke-width:8;stroke-linecap:round;stroke-linejoin:round;stroke-miterlimit:10;fill:#000000;fill-rule:nonzero"
     id="path10"
     inkscape:path-effect="#path-effect32"
     inkscape:original-d="M3.748199 37.322754C17.829651 34.839844,30.727676 45.701416,30.677246 60.000000" />
  <path
     d="m 33.063395,46.880319 c -3.09583,3.634644 -3.597284,7.337245 -3.413875,9.594218 C 29.83974,58.815309 30.677246,60 30.677246,60 c 0,0 1.329314,-0.52367 3.081763,-1.692102 1.829038,-1.219495 3.845433,-2.883473 6.153943,-5.589465 2.869317,-3.366421 6.529758,-5.981014 10.644803,-7.603411 3.308431,-1.306097 5.536432,-2.673824 7.283213,-4.008478 1.673638,-1.278768 2.600133,-2.366386 2.600133,-2.366386 0,0 -0.849027,-1.176462 -3.001575,-2.115573 -2.075488,-0.905492 -5.740579,-1.631996 -10.182812,0.117676 -5.487355,2.163443 -10.367125,5.648983 -14.193319,10.138058 z"
     style="stroke:none;stroke-width:8;stroke-linecap:round;stroke-linejoin:round;stroke-miterlimit:10;fill:#000000;fill-rule:nonzero"
     id="path12"
     inkscape:path-effect="#path-effect38"
     inkscape:original-d="M30.677246 60.000000C35.037628 47.282318,46.996689 38.740158,60.441101 38.740158" />
  <path
     d="m 59.130221,60.435211 c 3.435942,2.863849 6.980019,2.380464 8.727915,1.608856 C 69.748475,61.209577 70.362106,60 70.362106,60 c 0,0 -0.749296,-1.08583 -1.769688,-2.396448 -1.092106,-1.402729 -2.154767,-2.731613 -3.648393,-4.038543 -1.914668,-1.620258 -3.039491,-4.030654 -3.051387,-6.53885 -0.04221,-1.984241 -0.378083,-3.652284 -0.751634,-5.390332 -0.349022,-1.623917 -0.699903,-2.895669 -0.699903,-2.895669 0,0 -1.3212,-0.306679 -3.175023,0.606063 -1.714131,0.843964 -4.361145,3.249682 -4.373339,7.722623 0.02422,5.106885 2.339069,10.067395 6.237482,13.366367 z"
     style="stroke:none;stroke-width:8;stroke-linecap:round;stroke-linejoin:round;stroke-miterlimit:10;fill:#000000;fill-rule:nonzero"
     id="path14"
     inkscape:path-effect="#path-effect40"
     inkscape:original-d="M70.362106 60.000000C59.369934 60.000000,53.380264 47.164688,60.441101 38.740158" />
  <path
     d="M 67.360177,69.495352 C 68.965121,67.14819 69.667185,64.985885 70.037193,63.140375 70.398698,61.337279 70.362106,60 70.362106,60 c 0,0 -1.249491,-0.523512 -3.275376,-0.257288 -1.966514,0.258422 -4.906057,1.386513 -7.154132,4.670212 -2.778189,4.060111 -4.629782,8.689165 -5.418016,13.545245 -0.636661,3.928254 0.714008,6.772404 1.95983,8.31574 1.283433,1.589932 2.549285,2.072542 2.549285,2.072542 0,0 0.948749,-0.943148 1.930469,-2.498162 1.004812,-1.591592 1.987644,-3.641591 2.444146,-6.448123 0.576477,-3.551513 1.930026,-6.935437 3.961865,-9.904814 z"
     style="stroke:none;stroke-width:8;stroke-linecap:round;stroke-linejoin:round;stroke-miterlimit:10;fill:#000000;fill-rule:nonzero"
     id="path16"
     inkscape:path-effect="#path-effect44"
     inkscape:original-d="M70.362106 60.000000C61.506027 66.528763,57.113159 77.511108,59.023697 88.346451" />
  <path
     d="m 33.257813,91.763154 c -3.442089,2.335956 -4.829512,5.281496 -5.298594,7.324799 -0.479874,2.090307 -0.116797,3.431727 -0.116797,3.431727 0,0 5.258932,0.22529 10.468761,-3.309147 4.323598,-2.933749 9.233657,-4.923452 14.403886,-5.82089 4.138494,-0.718501 6.308628,-5.043192 6.308628,-5.043192 0,0 -2.16429,-4.810582 -7.847813,-3.824215 -6.432038,1.11646 -12.539795,3.591524 -17.918071,7.240918 z"
     style="stroke:none;stroke-width:8;stroke-linecap:round;stroke-linejoin:round;stroke-miterlimit:10;fill:#000000;fill-rule:nonzero"
     id="path18"
     inkscape:path-effect="#path-effect46"
     inkscape:original-d="M27.842422 102.519684C35.701828 93.514191,47.070908 88.346451,59.023697 88.346451" />
  <path
     d="m 31.787761,82.776553 c -3.908833,5.993674 -4.739555,11.29111 -4.737348,14.68689 0.0022,3.399937 0.792009,5.056237 0.792009,5.056237 0,0 1.410844,-1.1354 3.454776,-3.568195 2.268939,-2.700606 4.505792,-5.85864 8.028611,-11.257836 4.218736,-6.467443 9.74282,-11.991527 16.210262,-16.210263 5.399196,-3.522818 8.55723,-5.759672 11.257836,-8.02861 C 69.226698,61.410844 70.362106,60 70.362106,60 c 0,0 -1.656303,-0.789801 -5.056241,-0.79201 -3.39578,-0.0022 -8.693216,0.828515 -14.68689,4.737348 -7.513331,4.900973 -13.930241,11.317884 -18.831214,18.831215 z"
     style="stroke:none;stroke-width:8;stroke-linecap:round;stroke-linejoin:round;stroke-miterlimit:10;fill:#000000;fill-rule:nonzero"
     id="path20"
     inkscape:path-effect="#path-effect42"
     inkscape:original-d="M27.842422 102.519684C33.402649 81.768631,49.611053 65.560226,70.362106 60.000000" />
</svg>
