<?xml version="1.0"?>
<!-- Created by MetaPost 2.000 on 2022.03.30:1614 -->
<svg version="1.1" xmlns="http://www.w3.org/2000/svg" xmlns:xlink="http://www.w3.org/1999/xlink" width="66.110306" height="93.039352" viewBox="0 0 66.110306 93.039352">
<!-- Original BoundingBox: -16.755814 -4.000000 49.354492 89.039352 -->
  <path d="M16.000000 89.000000L16.000000 3.960648" style="stroke:rgb(0.000000%,0.000000%,0.000000%); stroke-width: 8.000000;stroke-linejoin: round;stroke-miterlimit: 10.000000;fill: none;"></path>
  <path d="M3.244186 53.566940L38.677246 35.141922C50.498474 35.141922,61.354492 42.524414,61.354492 53.566940L61.354492 89.000000" style="stroke:rgb(0.000000%,0.000000%,0.000000%); stroke-width: 8.000000;stroke-linejoin: round;stroke-miterlimit: 10.000000;fill: none;"></path>
</svg>
