<?xml version="1.0"?>
<!-- Created by MetaPost 2.000 on 2022.03.30:1615 -->
<svg version="1.1" xmlns="http://www.w3.org/2000/svg" xmlns:xlink="http://www.w3.org/1999/xlink" width="50.519684" height="87.369705" viewBox="0 0 50.519684 87.369705">
<!-- Original BoundingBox: -32.346451 -1.165176 18.173233 86.204529 -->
  <path d="M3.653549 83.165176C22.445312 83.165176,38.294006 74.224335,32.000000 63.322754C25.063141 51.307724,46.173233 45.705597,46.173233 34.976303L46.173233 29.307098" style="stroke:rgb(0.000000%,0.000000%,0.000000%); stroke-width: 8.000000;stroke-linejoin: round;stroke-miterlimit: 10.000000;fill: none;"></path>
  <path d="M46.173233 17.968689L46.173233 3.795471" style="stroke:rgb(0.000000%,0.000000%,0.000000%); stroke-width: 8.000000;stroke-linejoin: round;stroke-miterlimit: 10.000000;fill: none;"></path>
</svg>
