<?xml version="1.0" encoding="UTF-8" standalone="no"?>
<!-- Created by MetaPost 2.000 on 2021.05.13:0903 -->

<svg
   version="1.1"
   width="50.519675"
   height="129.889735"
   viewBox="0 0 50.519675 129.889735"
   id="svg8"
   sodipodi:docname="106_3.svg"
   inkscape:version="1.1 (ce6663b3b7, 2021-05-25)"
   xmlns:inkscape="http://www.inkscape.org/namespaces/inkscape"
   xmlns:sodipodi="http://sodipodi.sourceforge.net/DTD/sodipodi-0.dtd"
   xmlns="http://www.w3.org/2000/svg"
   xmlns:svg="http://www.w3.org/2000/svg">
  <defs
     id="defs12">
    <inkscape:path-effect
       effect="taper_stroke"
       id="path-effect16"
       is_visible="true"
       lpeversion="1"
       stroke_width="9"
       attach_start="0.1"
       end_offset="0.3"
       start_smoothing="0.7"
       end_smoothing="0.7"
       jointype="extrapolated"
       start_shape="center"
       end_shape="center"
       miter_limit="100" />
    <inkscape:path-effect
       effect="taper_stroke"
       id="path-effect14"
       is_visible="true"
       lpeversion="1"
       stroke_width="9"
       attach_start="0.2"
       end_offset="0.2"
       start_smoothing="0.7"
       end_smoothing="0.7"
       jointype="extrapolated"
       start_shape="center"
       end_shape="center"
       miter_limit="100" />
  </defs>
  <sodipodi:namedview
     id="namedview10"
     pagecolor="#ffffff"
     bordercolor="#666666"
     borderopacity="1.0"
     inkscape:pageshadow="2"
     inkscape:pageopacity="0.0"
     inkscape:pagecheckerboard="0"
     showgrid="false"
     inkscape:zoom="6.4670235"
     inkscape:cx="23.581173"
     inkscape:cy="64.94487"
     inkscape:window-width="1853"
     inkscape:window-height="1025"
     inkscape:window-x="67"
     inkscape:window-y="27"
     inkscape:window-maximized="1"
     inkscape:current-layer="svg8" />
  <!-- Original BoundingBox: -32.346450 -46.519675 18.173225 83.370060 -->
  <path
     d="M 10.067706,48.010274 C 7.686984,49.080719 6.1834813,50.629582 5.1478258,52.047916 4.1267419,53.446294 3.65355,54.65355 3.65355,54.65355 c 0,0 0.8146521,1.023191 2.5345252,1.772505 1.6858775,0.734503 4.4111788,1.211909 7.5689048,-0.206685 8.796104,-3.953082 15.855758,-11.012736 19.80884,-19.80884 1.418594,-3.157726 0.941188,-5.883027 0.206685,-7.568905 C 33.023191,27.121752 32,26.3071 32,26.3071 c 0,0 -1.207256,0.473192 -2.605634,1.494276 -1.418334,1.035655 -2.967197,2.539158 -4.037642,4.91988 -3.050361,6.787436 -8.501582,12.238657 -15.289018,15.289018 z"
     style="stroke:none;stroke-width:8;stroke-linecap:round;stroke-linejoin:round;stroke-miterlimit:10;fill:#000000;fill-rule:nonzero"
     id="path2"
     inkscape:path-effect="#path-effect14"
     inkscape:original-d="M3.653550 54.653550C18.121429 52.102473,29.448923 40.774979,32.000000 26.307100" />
  <path
     d="M32.000000 9.299230L37.669290 3.629940"
     style="stroke:rgb(0.000000%,0.000000%,0.000000%); stroke-width: 8.000000;stroke-linecap: round;stroke-linejoin: round;stroke-miterlimit: 10.000000;fill: none;"
     id="path4" />
  <path
     d="m 37.285141,118.30161 c 3.284796,6.85903 8.888084,7.21807 8.888084,7.21807 0,0 2.209815,-4.88128 -0.770894,-11.10539 C 36.780961,96.411822 32.45881,76.743197 32.656701,56.954879 32.7719,45.416037 32.903565,40.076007 32.66369,33.896723 32.467245,28.836209 32,26.3071 32,26.3071 c 0,0 -1.712264,1.945887 -3.759374,6.761181 -1.978058,4.652867 -4.472417,12.708698 -4.583475,23.796599 -0.21159,21.158112 4.409832,42.188092 13.62799,61.43673 z"
     style="stroke:none;stroke-width:8;stroke-linecap:round;stroke-linejoin:round;stroke-miterlimit:10;fill:#000000;fill-rule:nonzero"
     id="path6"
     inkscape:path-effect="#path-effect16"
     inkscape:original-d="M46.173225 125.519675C28.846433 95.508790,23.769327 59.969051,32.000000 26.307100" />
</svg>
