prologues:=3;
outputformat:="mps";
outputtemplate:=("%j" & "." & outputformat);
verbatimtex
%&latex
\documentclass{minimal}
\begin{document}
etex
beginfig(0);
z1=(-1cm,1cm);
z2=(0cm,2cm);
z3=(0.5cm,-1.5cm);
z4=(0cm,2.6cm);
z5=(0.2cm,2.8cm);
z6=(0.25cm, 2cm);
pickup pencircle scaled 8;
draw z1{dir 10}..z2;
draw z4--z5;
draw z3{dir 120}..z2;
endfig;
end