<?xml version="1.0"?>
<!-- Created by MetaPost 2.000 on 2022.03.30:1623 -->
<svg version="1.1" xmlns="http://www.w3.org/2000/svg" xmlns:xlink="http://www.w3.org/1999/xlink" width="61.858521" height="93.039352" viewBox="0 0 61.858521 93.039352">
<!-- Original BoundingBox: -12.504028 -4.000000 49.354492 89.039352 -->
  <path d="M3.495972 89.000000C3.495972 69.367126,3.913788 47.554657,20.504028 37.976303C30.451523 29.629227,22.810165 10.812088,34.677246 3.960648" style="stroke:rgb(0.000000%,0.000000%,0.000000%); stroke-width: 8.000000;stroke-linejoin: round;stroke-miterlimit: 10.000000;fill: none;"></path>
  <path d="M57.354492 32.307098C46.513901 51.083603,24.502350 60.351608,3.495972 54.984344" style="stroke:rgb(0.000000%,0.000000%,0.000000%); stroke-width: 8.000000;stroke-linejoin: round;stroke-miterlimit: 10.000000;fill: none;"></path>
  <path d="M3.495972 54.984344C23.879913 54.984344,41.541077 69.113235,46.015656 89.000000" style="stroke:rgb(0.000000%,0.000000%,0.000000%); stroke-width: 8.000000;stroke-linejoin: round;stroke-miterlimit: 10.000000;fill: none;"></path>
</svg>
