prologues:=3;
outputformat:="svg";
outputtemplate:=("%j" & "." & outputformat);
verbatimtex
%&latex
\documentclass{minimal}
\begin{document}
etex
beginfig(0);
z1=(0cm,0cm);
z2=(0cm,2cm);
z3=(-0.45cm,1.25cm);
z4=(0.8cm,1.9cm);
z5=(1.6cm,1.1cm);
z6=(1.6cm,0cm);
pickup pencircle scaled 8;
linejoin:=rounded; linecap:=butt;
draw z1--z2;
draw z3--z4..{dir 270}z5--z6;
endfig;
end
