<?xml version="1.0"?>
<!-- Created by MetaPost 2.000 on 2022.03.30:1631 -->
<svg version="1.1" xmlns="http://www.w3.org/2000/svg" xmlns:xlink="http://www.w3.org/1999/xlink" width="59.023254" height="59.023254" viewBox="0 0 59.023254 59.023254">
<!-- Original BoundingBox: -1.165176 -1.165176 57.858078 57.858078 -->
  <path d="M3.834824 28.653549L29.346451 3.141922L54.858078 28.653549L29.346451 54.165176Z" style="stroke:rgb(0.000000%,0.000000%,0.000000%); stroke-width: 8.000000;stroke-linejoin: round;stroke-miterlimit: 10.000000;fill: none;"></path>
</svg>
