prologues:=3;
outputformat:="svg";
outputtemplate:=("%j" & "." & outputformat);
verbatimtex
%&latex
\documentclass{minimal}
\begin{document}
etex
beginfig(0);
z3=(0cm,1cm);
z4=(1cm,2.1cm);
z5=(2cm,1cm);
z6=(1cm,-0.1cm);
pickup pencircle scaled 8;
linejoin:=rounded; linecap:=butt;
draw z3{dir 0}..{dir 90}z4;
draw z4{dir 270}..{dir 0}z5;
draw z5{dir 180}..{dir 180}z6;
draw z6..{dir 180}z3;
endfig;
end
