prologues:=3;
outputformat:="svg";
outputtemplate:=("%j" & "." & outputformat);
verbatimtex
%&latex
\documentclass{minimal}
\begin{document}
etex
beginfig(0);
z1=(-0.2cm,-1.25cm);
z2=(-0.3cm,1.8cm);
z3=(0cm,1.4cm);
z4=(0.9cm,2cm);
z5=(1.7cm,1cm);
z6=(1.2cm,0cm);
z7=(0.2cm, 0.5cm);
pickup pencircle scaled 8;
draw z2..{dir 340}z3;
draw z3..{dir 80}z4;
draw z3..{dir 250}z7;
draw z4..{dir 350}z5;
draw z5..{dir 280}z6;
draw z6..{dir 130}z7;
draw z1..{dir 120}z7;
endfig;
end
