<?xml version="1.0"?>
<!-- Created by MetaPost 2.000 on 2022.03.30:1634 -->
<svg version="1.1" xmlns="http://www.w3.org/2000/svg" xmlns:xlink="http://www.w3.org/1999/xlink" width="68.378082" height="95.874176" viewBox="0 0 68.378082 95.874176">
<!-- Original BoundingBox: -6.267776 -35.181274 62.110306 60.692902 -->
  <path d="M51.354492 91.181274L51.354492 3.307098" style="stroke:rgb(0.000000%,0.000000%,0.000000%); stroke-width: 8.000000;stroke-linejoin: round;stroke-miterlimit: 10.000000;fill: none;"></path>
  <path d="M51.354492 24.566940C49.062164 13.860718,39.626007 6.193939,28.677246 6.141922C14.788345 6.075943,3.715591 17.639252,3.732239 31.653549C3.748856 45.640686,14.802368 57.165176,28.677246 57.165176L64.110306 38.740158" style="stroke:rgb(0.000000%,0.000000%,0.000000%); stroke-width: 8.000000;stroke-linejoin: round;stroke-miterlimit: 10.000000;fill: none;"></path>
</svg>
