<?xml version="1.0" encoding="UTF-8" standalone="no"?>
<!-- Created by MetaPost 2.000 on 2021.06.10:1824 -->

<svg
   version="1.1"
   width="57.188889"
   height="65.692902"
   viewBox="0 0 57.188889 65.692902"
   id="svg6"
   sodipodi:docname="114_2.svg"
   inkscape:version="1.1 (ce6663b3b7, 2021-05-25)"
   xmlns:inkscape="http://www.inkscape.org/namespaces/inkscape"
   xmlns:sodipodi="http://sodipodi.sourceforge.net/DTD/sodipodi-0.dtd"
   xmlns="http://www.w3.org/2000/svg"
   xmlns:svg="http://www.w3.org/2000/svg">
  <defs
     id="defs10">
    <inkscape:path-effect
       effect="taper_stroke"
       id="path-effect14"
       is_visible="true"
       lpeversion="1"
       stroke_width="9"
       attach_start="0.2"
       end_offset="0.2"
       start_smoothing="0.7"
       end_smoothing="0.7"
       jointype="extrapolated"
       start_shape="center"
       end_shape="center"
       miter_limit="100" />
    <inkscape:path-effect
       effect="taper_stroke"
       id="path-effect12"
       is_visible="true"
       lpeversion="1"
       stroke_width="9"
       attach_start="0.2"
       end_offset="0.2"
       start_smoothing="0.7"
       end_smoothing="0.7"
       jointype="extrapolated"
       start_shape="center"
       end_shape="center"
       miter_limit="100" />
  </defs>
  <sodipodi:namedview
     id="namedview8"
     pagecolor="#ffffff"
     bordercolor="#666666"
     borderopacity="1.0"
     inkscape:pageshadow="2"
     inkscape:pageopacity="0.0"
     inkscape:pagecheckerboard="0"
     showgrid="false"
     inkscape:zoom="12.78677"
     inkscape:cx="27.763072"
     inkscape:cy="32.885554"
     inkscape:window-width="1600"
     inkscape:window-height="872"
     inkscape:window-x="1920"
     inkscape:window-y="0"
     inkscape:window-maximized="1"
     inkscape:current-layer="svg6" />
  <!-- Original BoundingBox: -18.673233 -4.500000 38.515656 61.192902 -->
  <path
     d="M 11.762925,49.931606 C 8.7582594,53.045295 6.9603346,55.376764 5.6086008,57.540518 4.3431527,59.566153 3.826767,61 3.826767,61 c 0,0 1.4046216,0.649508 4.026315,0.441269 2.521802,-0.200304 6.59468,-1.342801 10.380902,-5.254634 C 28.635983,45.425383 32.561249,29.724326 28.447136,15.334048 26.947215,10.100681 23.891145,7.175947 21.760287,5.8124783 19.545023,4.395001 18,4.307098 18,4.307098 c 0,0 -0.219117,1.5081638 -0.05579,3.890993 0.174468,2.545305 0.66371,5.448564 1.849619,9.609896 3.237231,11.323132 0.154008,23.65602 -8.030909,32.123619 z"
     style="stroke:none;stroke-width:9;stroke-linecap:round;stroke-linejoin:round;stroke-miterlimit:10;fill:#000000;fill-rule:nonzero"
     id="path2"
     inkscape:path-effect="#path-effect12"
     inkscape:original-d="M3.826767 61.000000C25.490784 50.897827,32.361343 23.415604,18.000000 4.307098" />
  <path
     d="M 26.300602,6.9088097 C 24.463776,5.6296172 22.610662,5.0544093 20.929907,4.6991417 19.293889,4.3533306 18,4.307098 18,4.307098 c 0,0 -0.71356,1.1044131 -0.722557,3.0226275 -0.0086,1.8401009 0.757752,4.7614865 3.851208,6.9446065 8.263758,5.802678 19.494596,5.802678 27.758354,0 3.093456,-2.18312 3.859839,-5.1045056 3.851208,-6.9446065 -0.009,-1.9182144 -0.722557,-3.0226275 -0.722557,-3.0226275 0,0 -1.293889,0.046233 -2.929907,0.3920437 -1.680755,0.3552676 -3.533869,0.9304755 -5.370695,2.209668 -5.161086,3.6240313 -12.253366,3.6240313 -17.414452,0 z"
     style="stroke:none;stroke-width:9;stroke-linecap:round;stroke-linejoin:round;stroke-miterlimit:10;fill:#000000;fill-rule:nonzero"
     id="path4"
     inkscape:path-effect="#path-effect14"
     inkscape:original-d="M18.000000 4.307098C25.559021 17.399750,44.456635 17.399750,52.015656 4.307098" />
</svg>
