%!PS-Adobe-3.0 EPSF-3.0
%%BoundingBox: 1 -2 45 61 
%%HiResBoundingBox: 1.43407 -1.41725 44.06433 60.6929 
%%Creator: MetaPost 2.000
%%CreationDate: 2021.06.10:1826
%%Pages: 1
%%DocumentResources: procset mpost-minimal
%%DocumentSuppliedResources: procset mpost-minimal
%%EndComments
%%BeginProlog
%%BeginResource: procset mpost-minimal
/bd{bind def}bind def/fshow {exch findfont exch scalefont setfont show}bd
/fcp{findfont dup length dict begin{1 index/FID ne{def}{pop pop}ifelse}forall}bd
/fmc{FontMatrix dup length array copy dup dup}bd/fmd{/FontMatrix exch def}bd
/Amul{4 -1 roll exch mul 1000 div}bd/ExtendFont{fmc 0 get Amul 0 exch put fmd}bd
/ScaleFont{dup fmc 0 get Amul 0 exch put dup dup 3 get Amul 3 exch put fmd}bd
/SlantFont{fmc 2 get dup 0 eq{pop 1}if Amul FontMatrix 0 get mul 2 exch put fmd}bd
%%EndResource
%%EndProlog
%%BeginSetup
%%EndSetup
%%Page: 1 1
 0 0 0 setrgbcolor 0 8 dtransform truncate idtransform setlinewidth pop
 [] 0 setdash 1 setlinecap 1 setlinejoin 10 setmiterlimit
newpath 34.01566 56.6929 moveto
19.46123 51.39546 36.80505 35.90005 39.68486 22.67725 curveto
42.20003 11.12874 31.83151 0.82657 19.84242 2.83482 curveto
10.45374 4.4075 4.11192 13.286 5.6692 22.67725 curveto stroke
showpage
%%EOF
