<?xml version="1.0"?>
<!-- Created by MetaPost 2.000 on 2022.03.30:1638 -->
<svg version="1.1" xmlns="http://www.w3.org/2000/svg" xmlns:xlink="http://www.w3.org/1999/xlink" width="56.189316" height="61.858078" viewBox="0 0 56.189316 61.858078">
<!-- Original BoundingBox: -6.834824 -1.165176 49.354492 60.692902 -->
  <path d="M3.165176 3.307098C18.323730 3.307098,17.442566 23.149521,6.000000 23.149521C20.770508 28.525604,3.963272 45.614166,6.000000 57.165176C20.032730 49.063400,37.321762 49.063400,51.354492 57.165176C36.625732 31.654129,31.376556 3.307098,51.354492 3.307098" style="stroke:rgb(0.000000%,0.000000%,0.000000%); stroke-width: 8.000000;stroke-linejoin: round;stroke-miterlimit: 10.000000;fill: none;"></path>
</svg>
