prologues:=3;
outputformat:="svg";
outputtemplate:=("%j" & "." & outputformat);
verbatimtex
%&latex
\documentclass{minimal}
\begin{document}
etex
beginfig(0);
z1=(1.5cm,0cm);
z2=(0.5cm,1.75cm);
z6=(2.2cm, 1.9cm);
z7=(-1.2cm,1.9cm);
z9=(-0.5cm,0cm);
pickup pencircle scaled 9;
draw z7{dir 270}..z9..{dir 0}z2{dir 0}..z1..{dir 90}z6;
endfig;
end
