prologues:=3;
outputformat:="svg";
outputtemplate:=("%j" & "." & outputformat);
verbatimtex
%&latex
\documentclass{minimal}
\begin{document}
etex
beginfig(0);
z6=(0.55cm, 3cm);
z7=(0.55cm, -0.1cm);
pickup pencircle scaled 8;
draw z6--z7;
endfig;
end
