prologues:=3;
outputformat:="svg";
outputtemplate:=("%j" & "." & outputformat);
verbatimtex
%&latex
\documentclass{minimal}
\begin{document}
etex
beginfig(0);
z3=(1.2cm,1.55cm);
z7=(1.55cm,0.6cm);
z8=(0.45cm,0.6cm);
z1=(0.8cm, 0cm);
z2=(-0.8cm, 0cm);
z4=(0.5cm, 1.55cm);
pickup pencircle scaled 9;
draw z7--z8{dir 0}..z3;
draw z1--z2{dir 0}..z4;
endfig;
end
