prologues:=3;
outputformat:="svg";
outputtemplate:=("%j" & "." & outputformat);
verbatimtex
%&latex
\documentclass{minimal}
\begin{document}
etex
beginfig(0);
z1=(1.1cm,0.5cm);
z2=(0.1cm,2cm);
z3=(0.5cm,2.4cm);
z4=(0.9cm,2cm);
z5=(0.5cm,1.6cm);
z6=(1.5cm, 0.9cm);
z7=(1.9cm, 0.5cm);
z8=(1.5cm, 0.1cm);
z9=(0cm,0cm);
z10=(2cm, 2.5cm);
pickup pencircle scaled 8;
draw z5..z4..z3..z2..cycle;
draw z6..z7..z8..z1..cycle;
draw z9--z10;
draw z1--z4;
endfig;
end
