<?xml version="1.0" encoding="UTF-8" standalone="no"?>
<!-- Created by MetaPost 2.000 on 2021.05.10:0453 -->

<svg
   xmlns:dc="http://purl.org/dc/elements/1.1/"
   xmlns:cc="http://creativecommons.org/ns#"
   xmlns:rdf="http://www.w3.org/1999/02/22-rdf-syntax-ns#"
   xmlns:svg="http://www.w3.org/2000/svg"
   xmlns="http://www.w3.org/2000/svg"
   xmlns:sodipodi="http://sodipodi.sourceforge.net/DTD/sodipodi-0.dtd"
   xmlns:inkscape="http://www.inkscape.org/namespaces/inkscape"
   version="1.1"
   width="42.015740"
   height="78.866125"
   viewBox="0 0 42.015740 78.866125"
   id="svg4"
   sodipodi:docname="40.svg"
   inkscape:version="0.92.3 (2405546, 2018-03-11)">
  <metadata
     id="metadata8">
    <rdf:RDF>
      <cc:Work
         rdf:about="">
        <dc:format>image/svg+xml</dc:format>
        <dc:type
           rdf:resource="http://purl.org/dc/dcmitype/StillImage" />
      </cc:Work>
    </rdf:RDF>
  </metadata>
  <defs
     id="defs8">
    <inkscape:path-effect
       effect="taper_stroke"
       id="path-effect7"
       is_visible="true"
       lpeversion="1"
       stroke_width="7"
       attach_start="1e-07"
       end_offset="0"
       start_smoothing="0.7"
       end_smoothing="0.7"
       jointype="extrapolated"
       start_shape="center"
       end_shape="center"
       miter_limit="100" />
    <inkscape:path-effect
       effect="powerstroke"
       id="path-effect10"
       is_visible="true"
       lpeversion="1"
       offset_points="0.2,4 | 1,4 | 1.8,4"
       not_jump="false"
       sort_points="true"
       interpolator_type="CentripetalCatmullRom"
       interpolator_beta="0.2"
       start_linecap_type="zerowidth"
       linejoin_type="round"
       miter_limit="4"
       scale_width="1"
       end_linecap_type="zerowidth" />
  </defs>
  <sodipodi:namedview
     id="namedview6"
     pagecolor="#ffffff"
     bordercolor="#666666"
     borderopacity="1.0"
     inkscape:pageshadow="2"
     inkscape:pageopacity="0.0"
     inkscape:pagecheckerboard="0"
     showgrid="false"
     inkscape:zoom="7.531366"
     inkscape:cx="-7.6530375"
     inkscape:cy="39.386121"
     inkscape:window-width="1600"
     inkscape:window-height="872"
     inkscape:window-x="1920"
     inkscape:window-y="0"
     inkscape:window-maximized="1"
     inkscape:current-layer="svg4" />
  <!-- Original BoundingBox: -9.669290 -4.000000 32.346450 74.866125 -->
  <path
     d="M 37.489242,70.502914 C 20.321945,69.801914 6.83071,55.748541 6.83071,38.566938 6.83071,21.385333 20.321945,7.3319615 37.489242,6.630961 L 37.203646,-0.36321051 C 16.357387,0.48801478 -0.16929,17.703306 -0.16929,38.566938 c 0,20.863631 16.526677,38.078922 37.372936,38.930148 z"
     style="fill:#000000;fill-rule:nonzero;stroke:none;stroke-width:8;stroke-linecap:round;stroke-linejoin:round;stroke-miterlimit:10"
     id="path2"
     inkscape:original-d="M 37.34645,74 C 18.339669,73.22389 3.33071,57.589557 3.33071,38.566938 c 0,-19.02262 15.008959,-34.656953 34.01574,-35.433063"
     inkscape:path-effect="#path-effect7" />
</svg>
