prologues:=3;
outputformat:="svg";
outputtemplate:=("%j" & "." & outputformat);
verbatimtex
%&latex
\documentclass{minimal}
\begin{document}
etex
beginfig(0);
z3=(-0.8cm,0cm);
z4=(0.8cm,2.7cm);
pickup pencircle scaled 8;
draw z3--z4;
endfig;
end
