%!PS-Adobe-3.0 EPSF-3.0
%%BoundingBox: -4 -4 61 81 
%%HiResBoundingBox: -4 -4 60.6929 80.53532 
%%Creator: MetaPost 2.000
%%CreationDate: 2021.05.06:1349
%%Pages: 1
%%DocumentResources: procset mpost-minimal
%%DocumentSuppliedResources: procset mpost-minimal
%%EndComments
%%BeginProlog
%%BeginResource: procset mpost-minimal
/bd{bind def}bind def/fshow {exch findfont exch scalefont setfont show}bd
/fcp{findfont dup length dict begin{1 index/FID ne{def}{pop pop}ifelse}forall}bd
/fmc{FontMatrix dup length array copy dup dup}bd/fmd{/FontMatrix exch def}bd
/Amul{4 -1 roll exch mul 1000 div}bd/ExtendFont{fmc 0 get Amul 0 exch put fmd}bd
/ScaleFont{dup fmc 0 get Amul 0 exch put dup dup 3 get Amul 3 exch put fmd}bd
/SlantFont{fmc 2 get dup 0 eq{pop 1}if Amul FontMatrix 0 get mul 2 exch put fmd}bd
%%EndResource
%%EndProlog
%%BeginSetup
%%EndSetup
%%Page: 1 1
 0 0 0 setrgbcolor 0 8 dtransform truncate idtransform setlinewidth pop
 [] 0 setdash 1 setlinejoin 10 setmiterlimit
newpath 56.6929 38.26788 moveto
56.693 18.71889 46.1368 0 28.34645 0 curveto
10.55612 0 -0.00009 18.71887 0 38.26788 curveto
0.00009 57.81668 10.55627 76.53532 28.34645 76.53532 curveto
46.13663 76.53532 56.69281 57.81668 56.6929 38.26788 curveto closepath stroke
 1 setlinecap
newpath 11.33841 26.92905 moveto
45.35449 48.18887 lineto stroke
showpage
%%EOF
