prologues:=3;
outputformat:="svg";
outputtemplate:=("%j" & "." & outputformat);
verbatimtex
%&latex
\documentclass{minimal}
\begin{document}
etex
beginfig(0);
z4=(0.8cm,0cm);
z5=(0.8cm,0.5cm);
z1=(0.8cm, 1.7cm);
z2=(0.8cm, 1.2cm);
pickup pencircle scaled 8;
draw z4--z5;
draw z1--z2;
endfig;
end
