<?xml version="1.0" encoding="UTF-8" standalone="no"?>
<!-- Created by MetaPost 2.000 on 2021.07.31:1310 -->

<svg
   xmlns:dc="http://purl.org/dc/elements/1.1/"
   xmlns:cc="http://creativecommons.org/ns#"
   xmlns:rdf="http://www.w3.org/1999/02/22-rdf-syntax-ns#"
   xmlns:svg="http://www.w3.org/2000/svg"
   xmlns="http://www.w3.org/2000/svg"
   xmlns:sodipodi="http://sodipodi.sourceforge.net/DTD/sodipodi-0.dtd"
   xmlns:inkscape="http://www.inkscape.org/namespaces/inkscape"
   version="1.1"
   width="27.177246"
   height="65.692902"
   viewBox="0 0 27.177246 65.692902"
   id="svg6"
   sodipodi:docname="59.svg"
   inkscape:version="0.92.3 (2405546, 2018-03-11)">
  <metadata
     id="metadata8">
    <rdf:RDF>
      <cc:Work
         rdf:about="">
        <dc:format>image/svg+xml</dc:format>
        <dc:type
           rdf:resource="http://purl.org/dc/dcmitype/StillImage" />
      </cc:Work>
    </rdf:RDF>
  </metadata>
  <defs
     id="defs10">
    <inkscape:path-effect
       effect="taper_stroke"
       id="path-effect814"
       is_visible="true"
       stroke_width="7"
       attach_start="1e-07"
       end_offset="0"
       smoothing="0.5"
       jointype="extrapolated"
       miter_limit="100" />
    <inkscape:path-effect
       effect="taper_stroke"
       id="path-effect827"
       is_visible="true"
       lpeversion="1"
       stroke_width="7"
       attach_start="1e-07"
       end_offset="0"
       start_smoothing="0.7"
       end_smoothing="0.7"
       jointype="extrapolated"
       start_shape="center"
       end_shape="center"
       miter_limit="100"
       smoothing="0.7" />
  </defs>
  <sodipodi:namedview
     id="namedview8"
     pagecolor="#ffffff"
     bordercolor="#666666"
     borderopacity="1.0"
     inkscape:pageshadow="2"
     inkscape:pageopacity="0.0"
     inkscape:pagecheckerboard="0"
     showgrid="false"
     inkscape:zoom="9.0416118"
     inkscape:cx="-29.667766"
     inkscape:cy="45.398487"
     inkscape:window-width="1853"
     inkscape:window-height="1025"
     inkscape:window-x="67"
     inkscape:window-y="27"
     inkscape:window-maximized="1"
     inkscape:current-layer="svg6" />
  <!-- Original BoundingBox: 1.169205 -13.004028 27.177246 52.688873 -->
  <path
     d="M 6.6491876,63.864033 C 18.206424,60.493249 26.177244,49.865539 26.177246,37.826771 l -7,-10e-7 c -1e-6,8.958755 -5.887606,16.808854 -14.4880176,19.317251 z"
     style="stroke:none;stroke-width:9;stroke-linecap:round;stroke-linejoin:round;stroke-miterlimit:10;fill:#000000;fill-rule:nonzero"
     id="path2"
     inkscape:path-effect="#path-effect827"
     inkscape:original-d="M5.669205 60.504028C15.748032 57.564438,22.677246 48.325531,22.677246 37.826767" />
  <path
     d="M 19.177246,3.8111284 V 17.984343 h 7 V 3.8111284 Z"
     style="stroke:none;stroke-width:9;stroke-linecap:round;stroke-linejoin:round;stroke-miterlimit:10;fill:#000000;fill-rule:nonzero"
     id="path4"
     inkscape:path-effect="#path-effect814"
     inkscape:original-d="M22.677246 3.811127L22.677246 17.984344" />
</svg>
