<?xml version="1.0"?>
<!-- Created by MetaPost 2.000 on 2022.03.30:1405 -->
<svg version="1.1" xmlns="http://www.w3.org/2000/svg" xmlns:xlink="http://www.w3.org/1999/xlink" width="47.684860" height="36.598251" viewBox="0 0 47.684860 36.598251">
<!-- Original BoundingBox: -11.086609 1.669205 36.598251 36.598251 -->
  <path d="M43.598251 30.330795L3.913391 30.330795L43.598251 3.401749" style="stroke:rgb(0.000000%,0.000000%,0.000000%); stroke-width: 8.000000;stroke-linecap: round;stroke-linejoin: round;stroke-miterlimit: 10.000000;fill: none;"></path>
</svg>
