<?xml version="1.0" encoding="UTF-8" standalone="no"?>
<!-- Created by MetaPost 2.000 on 2021.05.15:0940 -->

<svg
   version="1.1"
   width="53.945635"
   height="84.548808"
   viewBox="0 0 53.945635 84.548808"
   id="svg10"
   sodipodi:docname="66_3.svg"
   inkscape:version="1.1 (c4e8f9ed74, 2021-05-24)"
   xmlns:inkscape="http://www.inkscape.org/namespaces/inkscape"
   xmlns:sodipodi="http://sodipodi.sourceforge.net/DTD/sodipodi-0.dtd"
   xmlns="http://www.w3.org/2000/svg"
   xmlns:svg="http://www.w3.org/2000/svg">
  <defs
     id="defs14">
    <inkscape:path-effect
       effect="taper_stroke"
       id="path-effect22"
       is_visible="true"
       lpeversion="1"
       stroke_width="9"
       attach_start="0.2"
       end_offset="0.2"
       start_smoothing="0.7"
       end_smoothing="0.7"
       jointype="extrapolated"
       start_shape="center"
       end_shape="center"
       miter_limit="100" />
    <inkscape:path-effect
       effect="taper_stroke"
       id="path-effect20"
       is_visible="true"
       lpeversion="1"
       stroke_width="9"
       attach_start="0.2"
       end_offset="0.2"
       start_smoothing="0.7"
       end_smoothing="0.7"
       jointype="extrapolated"
       start_shape="center"
       end_shape="center"
       miter_limit="100" />
    <inkscape:path-effect
       effect="taper_stroke"
       id="path-effect18"
       is_visible="true"
       lpeversion="1"
       stroke_width="9"
       attach_start="0.4"
       end_offset="0.4"
       start_smoothing="0.7"
       end_smoothing="0.7"
       jointype="extrapolated"
       start_shape="center"
       end_shape="center"
       miter_limit="100" />
    <inkscape:path-effect
       effect="taper_stroke"
       id="path-effect16"
       is_visible="true"
       lpeversion="1"
       stroke_width="9"
       attach_start="0.2"
       end_offset="0.2"
       start_smoothing="0.7"
       end_smoothing="0.7"
       jointype="extrapolated"
       start_shape="center"
       end_shape="center"
       miter_limit="100" />
  </defs>
  <sodipodi:namedview
     id="namedview12"
     pagecolor="#ffffff"
     bordercolor="#666666"
     borderopacity="1.0"
     inkscape:pageshadow="2"
     inkscape:pageopacity="0.0"
     inkscape:pagecheckerboard="0"
     showgrid="false"
     inkscape:zoom="9.9350901"
     inkscape:cx="25.817582"
     inkscape:cy="42.274403"
     inkscape:window-width="1853"
     inkscape:window-height="1025"
     inkscape:window-x="67"
     inkscape:window-y="27"
     inkscape:window-maximized="1"
     inkscape:current-layer="svg10" />
  <!-- Original BoundingBox: -25.253639 -4.013393 28.691996 80.535415 -->
  <path
     d="M 8.7006121,71.256418 C 12.676711,76.600092 17.236551,78.74636 20.27033,79.56685 23.309024,80.38867 25,80 25,80 25,80 24.401432,78.401815 22.922773,75.930897 21.183254,73.024068 19.389183,70.561816 15.925284,65.889471 7.0518484,53.944569 5.7531918,37.71136 12.614739,24.507659 c 2.677022,-5.163618 4.056819,-7.87978 5.31208,-11.026191 1.06702,-2.674572 1.403891,-4.347593 1.403891,-4.347593 0,0 -1.731261,-0.1148909 -4.600652,1.179575 -2.86475,1.292373 -7.025376,4.136279 -10.1013538,10.044118 -8.441905,16.24479 -6.8452653,36.202787 4.0719079,50.89885 z"
     style="stroke:none;stroke-width:8;stroke-linecap:round;stroke-linejoin:round;stroke-miterlimit:10;fill:#000000;fill-rule:nonzero"
     id="path2"
     inkscape:path-effect="#path-effect16"
     inkscape:original-d="M25.000000 80.000000C-0.757770 64.613490,-3.653271 28.419725,19.330710 9.133875" />
  <path
     d="M 27.636253,6.3011775 C 25.475871,6.5898188 23.712258,7.2332651 22.076863,7.8947534 20.506956,8.529753 19.33071,9.133875 19.33071,9.133875 c 0,0 -0.009,1.35467 1.236491,2.998719 1.168892,1.542934 3.934009,3.638469 8.222114,3.094414 1.925584,-0.248752 3.805686,-0.785924 5.572032,-1.592009 3.92827,-1.803481 5.168936,-5.043525 5.346256,-6.9710912 0.18894,-2.0538875 -0.534378,-3.1993228 -0.534378,-3.1993228 0,0 -1.317858,0.1084789 -2.986269,0.3987132 -1.738009,0.3023412 -3.575351,0.6877393 -5.562127,1.5840004 -0.947538,0.4324159 -1.955617,0.7204386 -2.988576,0.8538789 z"
     style="stroke:none;stroke-width:8;stroke-linecap:round;stroke-linejoin:round;stroke-miterlimit:10;fill:#000000;fill-rule:nonzero"
     id="path4"
     inkscape:path-effect="#path-effect18"
     inkscape:original-d="M19.330710 9.133875C26.391361 12.905370,35.170820 10.396953,39.173225 3.464585" />
  <path
     d="M 50.059147,7.447635 C 47.663712,3.8937018 44.416104,2.9273857 42.429992,2.8454432 40.342502,2.7593181 39.173225,3.464585 39.173225,3.464585 c 0,0 0.158681,1.3314066 0.670738,3.0661131 0.511822,1.7339114 1.302247,3.7539969 2.734921,5.9215009 3.998807,5.976971 3.365752,14.206687 -1.500136,19.501759 -1.747319,1.922889 -2.837399,3.798321 -3.608386,5.433554 -0.771341,1.635984 -1.131782,2.927458 -1.131782,2.927458 0,0 1.047657,0.8758 3.12376,1.109952 1.975278,0.222779 5.332469,-0.235475 8.243265,-3.381237 7.648672,-8.323305 8.639254,-21.20087 2.353542,-30.59605 z"
     style="stroke:none;stroke-width:8;stroke-linecap:round;stroke-linejoin:round;stroke-miterlimit:10;fill:#000000;fill-rule:nonzero"
     id="path6"
     inkscape:path-effect="#path-effect20"
     inkscape:original-d="M39.173225 3.464585C54.453489 11.864082,52.723705 34.351272,36.338580 40.314970" />
  <path
     d="m 48.62342,46.658315 c -2.485561,-4.625434 -6.30709,-6.192643 -8.548722,-6.564414 -2.398072,-0.397716 -3.736118,0.221069 -3.736118,0.221069 0,0 0.292955,1.410577 1.018905,3.37259 0.873077,2.35965 1.684789,4.028432 3.311012,7.180173 4.121162,7.788138 1.19648,18.024525 -6.417107,22.459877 -3.045827,1.816871 -4.616637,2.804932 -6.604536,4.34716 C 25.993946,78.957109 25,80 25,80 c 0,0 0.809171,1.232276 3.055385,2.161498 2.09968,0.868604 6.172333,1.556876 10.726342,-1.057253 11.679276,-6.80385 16.163574,-22.498893 9.841693,-34.44593 z"
     style="stroke:none;stroke-width:8;stroke-linecap:round;stroke-linejoin:round;stroke-miterlimit:10;fill:#000000;fill-rule:nonzero"
     id="path8"
     inkscape:path-effect="#path-effect22"
     inkscape:original-d="M36.338580 40.314970C55.511510 51.384466,47.126939 80.730466,25.000000 80.000000" />
</svg>
