prologues:=3;
outputformat:="svg";
outputtemplate:=("%j" & "." & outputformat);
verbatimtex
%&latex
\documentclass{minimal}
\begin{document}
etex
beginfig(0);
z2=(0.4cm,2.3cm);
z6=(0.4cm, 1cm);
z8=(1.8cm, 2.2cm);
z7=(1.8cm, 0.6cm);
pickup pencircle scaled 8;
draw z7{dir 230}..{dir 50}z6{dir 170}..{dir 0}z2{dir 60}..z8;
endfig;
end
