<?xml version="1.0"?>
<!-- Created by MetaPost 2.000 on 2022.03.30:1417 -->
<svg version="1.1" xmlns="http://www.w3.org/2000/svg" xmlns:xlink="http://www.w3.org/1999/xlink" width="55.023697" height="90.204971" viewBox="0 0 55.023697 90.204971">
<!-- Original BoundingBox: 4.504028 -6.834824 55.023697 83.370148 -->
  <path d="M51.023697 85.834824C42.476059 71.029831,24.904083 64.000961,8.504028 68.826767" style="stroke:rgb(0.000000%,0.000000%,0.000000%); stroke-width: 8.000000;stroke-linecap: round;stroke-linejoin: round;stroke-miterlimit: 10.000000;fill: none;"></path>
  <path d="M8.504028 68.826767C27.051956 58.118149,27.051956 31.346512,8.504028 20.637894" style="stroke:rgb(0.000000%,0.000000%,0.000000%); stroke-width: 8.000000;stroke-linecap: round;stroke-linejoin: round;stroke-miterlimit: 10.000000;fill: none;"></path>
  <path d="M8.504028 20.637894C24.841187 30.070129,45.698456 21.727142,51.023697 3.629852" style="stroke:rgb(0.000000%,0.000000%,0.000000%); stroke-width: 8.000000;stroke-linecap: round;stroke-linejoin: round;stroke-miterlimit: 10.000000;fill: none;"></path>
</svg>
