prologues:=3;
outputformat:="svg";
outputtemplate:=("%j" & "." & outputformat);
verbatimtex
%&latex
\documentclass{minimal}
\begin{document}
etex
beginfig(0);
z1=(0cm,0.15cm);
z2=(0cm,2.6cm);
z4=(1.2cm,2.6cm);
z6=(2.4cm, 1.35cm);
z8=(1.2cm, 0.15cm);
pickup pencircle scaled 8;
linejoin:=rounded; linecap:=butt;
draw z2--z4..z6..z8--z1--z2;
endfig;
end
