%!PS-Adobe-3.0 EPSF-3.0
%%BoundingBox: -27 -5 48 91 
%%HiResBoundingBox: -26.85733 -4.06534 47.28975 90.03027 
%%Creator: MetaPost 2.000
%%CreationDate: 2021.07.28:1502
%%Pages: 1
%%DocumentResources: procset mpost-minimal
%%DocumentSuppliedResources: procset mpost-minimal
%%EndComments
%%BeginProlog
%%BeginResource: procset mpost-minimal
/bd{bind def}bind def/fshow {exch findfont exch scalefont setfont show}bd
/fcp{findfont dup length dict begin{1 index/FID ne{def}{pop pop}ifelse}forall}bd
/fmc{FontMatrix dup length array copy dup dup}bd/fmd{/FontMatrix exch def}bd
/Amul{4 -1 roll exch mul 1000 div}bd/ExtendFont{fmc 0 get Amul 0 exch put fmd}bd
/ScaleFont{dup fmc 0 get Amul 0 exch put dup dup 3 get Amul 3 exch put fmd}bd
/SlantFont{fmc 2 get dup 0 eq{pop 1}if Amul FontMatrix 0 get mul 2 exch put fmd}bd
%%EndResource
%%EndProlog
%%BeginSetup
%%EndSetup
%%Page: 1 1
 0 0 0 setrgbcolor 0 8 dtransform truncate idtransform setlinewidth pop
 [] 0 setdash 1 setlinecap 1 setlinejoin 10 setmiterlimit
newpath 0 0 moveto
25.63414 20.3703 22.68648 60.16422 -5.6692 76.53532 curveto
-58.21797 106.8743 26.88599 52.66609 22.67725 76.53532 curveto stroke
newpath 22.67725 76.53532 moveto
60.04369 54.96187 43.08752 -2.26486 0 0 curveto stroke
showpage
%%EOF
