prologues:=3;
outputformat:="svg";
outputtemplate:=("%j" & "." & outputformat);
verbatimtex
%&latex
\documentclass{minimal}
\begin{document}
etex
beginfig(0);
z1=(0cm,0cm);
z2=(0cm,2.6cm);
z4=(0.8cm,2.6cm);
z5=(-0.45cm,1.85cm);
z6=(0.7cm, 1.3cm);
z7=(0cm, 1.3cm);
pickup pencircle scaled 8;
linejoin:=rounded; linecap:=butt;
draw z1--z2;
draw z5--z4;
draw z6--z7;
endfig;
end
