prologues:=3;
outputformat:="mps";
outputtemplate:=("%j" & "." & outputformat);
verbatimtex
%&latex
\documentclass{minimal}
\begin{document}
etex
beginfig(0);
z1=(1.5cm,1.7cm);
z2=(0cm,1.7cm);
z5=(1.05cm,1.95cm);
z6=(1.2cm,0cm);
z8=(0.8cm, 2.7cm);
z7=(2.1cm, 0.8cm);
pickup pencircle scaled 8;
draw z7{dir 170}..z6;
draw z7{dir 50}..z1;
draw z6{dir 90}..z2;
draw z2{dir 10}..z8;
endfig;
end