prologues:=3;
outputformat:="svg";
outputtemplate:=("%j" & "." & outputformat);
verbatimtex
%&latex
\documentclass{minimal}
\begin{document}
etex
beginfig(0);
z1=(0cm,0cm);
z2=(0cm,2.7cm);
z4=(1.5cm,1.9cm);
z5=(-0.45cm,0.75cm);
z6=(1.05cm, 2.7cm);
z7=(1.05cm, 0cm);
pickup pencircle scaled 8;
draw z1--z2;
draw z5--z4;
draw z6--z7;
endfig;
end
