%!PS-Adobe-3.0 EPSF-3.0
%%BoundingBox: -12 -5 42 82 
%%HiResBoundingBox: -11.58661 -4.5 41.35048 81.03532 
%%Creator: MetaPost 2.000
%%CreationDate: 2021.06.07:1721
%%Pages: 1
%%DocumentResources: procset mpost-minimal
%%DocumentSuppliedResources: procset mpost-minimal
%%EndComments
%%BeginProlog
%%BeginResource: procset mpost-minimal
/bd{bind def}bind def/fshow {exch findfont exch scalefont setfont show}bd
/fcp{findfont dup length dict begin{1 index/FID ne{def}{pop pop}ifelse}forall}bd
/fmc{FontMatrix dup length array copy dup dup}bd/fmd{/FontMatrix exch def}bd
/Amul{4 -1 roll exch mul 1000 div}bd/ExtendFont{fmc 0 get Amul 0 exch put fmd}bd
/ScaleFont{dup fmc 0 get Amul 0 exch put dup dup 3 get Amul 3 exch put fmd}bd
/SlantFont{fmc 2 get dup 0 eq{pop 1}if Amul FontMatrix 0 get mul 2 exch put fmd}bd
%%EndResource
%%EndProlog
%%BeginSetup
%%EndSetup
%%Page: 1 1
 0 0 0 setrgbcolor 0 9 dtransform truncate idtransform setlinewidth pop
 [] 0 setdash 1 setlinecap 1 setlinejoin 10 setmiterlimit
newpath -4.2518 0 moveto
36.85048 0 lineto stroke
newpath -7.08661 55.2755 moveto
36.85048 76.53532 lineto stroke
 9 0 dtransform exch truncate exch idtransform pop setlinewidth
newpath 17.00804 76.53532 moveto
17.00804 0 lineto stroke
showpage
%%EOF
