prologues:=3;
outputformat:="svg";
outputtemplate:=("%j" & "." & outputformat);
verbatimtex
%&latex
\documentclass{minimal}
\begin{document}
etex
beginfig(0);
z1=(-0.25cm,1cm);
z2=(0.7cm,0.1cm);
z5=(-0.25cm,1.55cm);
z6=(1cm, 2.7cm);
z7=(1cm, 1cm);
pickup pencircle scaled 9;
draw z1..z2..z7;
draw z6..{dir 230}z7;
endfig;
end
