<?xml version="1.0" encoding="UTF-8" standalone="no"?>
<!-- Created by MetaPost 2.000 on 2021.05.04:1013 -->

<svg
   xmlns:dc="http://purl.org/dc/elements/1.1/"
   xmlns:cc="http://creativecommons.org/ns#"
   xmlns:rdf="http://www.w3.org/1999/02/22-rdf-syntax-ns#"
   xmlns:svg="http://www.w3.org/2000/svg"
   xmlns="http://www.w3.org/2000/svg"
   xmlns:sodipodi="http://sodipodi.sourceforge.net/DTD/sodipodi-0.dtd"
   xmlns:inkscape="http://www.inkscape.org/namespaces/inkscape"
   version="1.1"
   width="51.936998"
   height="84.535415"
   viewBox="0 0 51.936998 84.535415"
   id="svg8"
   sodipodi:docname="75_1.svg">
  <metadata
     id="metadata14">
    <rdf:RDF>
      <cc:Work
         rdf:about="">
        <dc:format>image/svg+xml</dc:format>
        <dc:type
           rdf:resource="http://purl.org/dc/dcmitype/StillImage" />
      </cc:Work>
    </rdf:RDF>
  </metadata>
  <defs
     id="defs12">
    <inkscape:path-effect
       effect="perspective-envelope"
       up_left_point="11,3.464585"
       up_right_point="11,3.464585"
       down_left_point="11,80"
       down_right_point="11,80"
       id="path-effect857"
       is_visible="true"
       lpeversion="1"
       deform_type="perspective"
       horizontal_mirror="false"
       vertical_mirror="false"
       overflow_perspective="false" />
    <inkscape:path-effect
       effect="interpolate_points"
       id="path-effect855"
       is_visible="true"
       lpeversion="1"
       interpolator_type="SpiroInterpolator" />
    <inkscape:path-effect
       effect="construct_grid"
       id="path-effect853"
       is_visible="true"
       lpeversion="1"
       nr_x="26"
       nr_y="15" />
    <inkscape:path-effect
       effect="skeletal"
       id="path-effect851"
       is_visible="true"
       lpeversion="1"
       pattern="M 0,0 H 1"
       copytype="single_stretched"
       prop_scale="1.08"
       scale_y_rel="false"
       spacing="0.7"
       normal_offset="0.9"
       tang_offset="1.6"
       prop_units="false"
       vertical_pattern="false"
       hide_knot="false"
       fuse_tolerance="0" />
    <inkscape:path-effect
       effect="knot"
       id="path-effect849"
       is_visible="true"
       lpeversion="1"
       switcher_size="16.9"
       interruption_width="6"
       prop_to_stroke_width="true"
       add_stroke_width="inkscape_1.0_and_up"
       both="true"
       inverse_width="false"
       add_other_stroke_width="inkscape_1.0_and_up"
       crossing_points_vector="" />
    <inkscape:path-effect
       effect="pts2ellipse"
       id="path-effect847"
       is_visible="true"
       lpeversion="1"
       method="auto"
       gen_arc="false"
       arc_other="false"
       slice_arc="false"
       gen_isometric_frame="false"
       draw_axes="false"
       gen_perspective_frame="false"
       draw_perspective_axes="false"
       rot_axes="14"
       draw_ori_path="false" />
    <inkscape:path-effect
       effect="ellipse_5pts"
       id="path-effect845"
       is_visible="true"
       lpeversion="1" />
    <inkscape:path-effect
       effect="lattice2"
       gridpoint0="11,3.464585"
       gridpoint1="11,3.464585"
       gridpoint2="11,80"
       gridpoint3="11,80"
       gridpoint4="11,3.464585"
       gridpoint5="11,3.464585"
       gridpoint6="11,80"
       gridpoint7="11,80"
       gridpoint8x9="11,3.464585"
       gridpoint10x11="11,80"
       gridpoint12="11,22.598439"
       gridpoint13="11,22.598439"
       gridpoint14="11,60.866146"
       gridpoint15="11,60.866146"
       gridpoint16="11,22.598439"
       gridpoint17="11,22.598439"
       gridpoint18="11,60.866146"
       gridpoint19="11,60.866146"
       gridpoint20x21="11,22.598439"
       gridpoint22x23="11,60.866146"
       gridpoint24x26="11,41.732292"
       gridpoint25x27="11,41.732292"
       gridpoint28x30="11,41.732292"
       gridpoint29x31="11,41.732292"
       gridpoint32x33x34x35="11,41.732292"
       id="path-effect843"
       is_visible="true"
       lpeversion="1"
       horizontal_mirror="true"
       vertical_mirror="false"
       perimetral="true"
       live_update="true" />
    <inkscape:path-effect
       effect="envelope"
       id="path-effect841"
       is_visible="true"
       lpeversion="1"
       yy="true"
       xx="true"
       bendpath1="M 11,3.464585 Z"
       bendpath2="M 11,3.464585 V 80"
       bendpath3="M 11,80 Z"
       bendpath4="M 11,3.464585 V 80" />
    <inkscape:path-effect
       effect="fillet_chamfer"
       id="path-effect839"
       is_visible="true"
       lpeversion="1"
       satellites_param="C,0,0,1,0,0,0,1 @ C,0,0,1,0,0,0,1"
       unit="mm"
       method="auto"
       mode="F"
       radius="13"
       chamfer_steps="1"
       flexible="false"
       use_knot_distance="true"
       apply_no_radius="true"
       apply_with_radius="true"
       only_selected="false"
       hide_knots="false" />
  </defs>
  <sodipodi:namedview
     pagecolor="#ffffff"
     bordercolor="#666666"
     borderopacity="1"
     objecttolerance="10"
     gridtolerance="10"
     guidetolerance="10"
     inkscape:pageopacity="0"
     inkscape:pageshadow="2"
     inkscape:window-width="640"
     inkscape:window-height="480"
     id="namedview10"
     showgrid="false" />
  <!-- Original BoundingBox: -11.086613 -4.000000 40.850385 80.535415 -->
  <path
     d="M11.000000 80.000000L11.000000 3.464585"
     style="stroke:rgb(0.000000%,0.000000%,0.000000%); stroke-width: 8.000000;stroke-linecap: round;stroke-linejoin: round;stroke-miterlimit: 10.000000;fill: none;"
     id="path2"
     inkscape:path-effect="#path-effect857"
     inkscape:original-d="M11.000000 80.000000L11.000000 3.464585" />
  <path
     d="M3.913387 36.063002L47.850385 3.464585"
     style="stroke:rgb(0.000000%,0.000000%,0.000000%); stroke-width: 8.000000;stroke-linecap: round;stroke-linejoin: round;stroke-miterlimit: 10.000000;fill: none;"
     id="path4" />
  <path
     d="M47.850385 80.000000L11.000000 43.149615"
     style="stroke:rgb(0.000000%,0.000000%,0.000000%); stroke-width: 8.000000;stroke-linecap: round;stroke-linejoin: round;stroke-miterlimit: 10.000000;fill: none;"
     id="path6" />
</svg>
