prologues:=3;
outputformat:="svg";
outputtemplate:=("%j" & "." & outputformat);
verbatimtex
%&latex
\documentclass{minimal}
\begin{document}
etex
beginfig(0);
z1=(0cm,0cm);
z2=(0cm,2.7cm);
z4=(1.3cm,2.7cm);
z6=(1.3cm, 0cm);
z7=(-0.3cm, 1.3cm);
pickup pencircle scaled 8;
draw z1..{dir 50}z2;
draw z6..{dir 180}z7{dir 0}..z4;
endfig;
end
