prologues:=3;
outputformat:="mps";
outputtemplate:=("%j" & "." & outputformat);
verbatimtex
%&latex
\documentclass{minimal}
\begin{document}
etex
beginfig(0);
z1=(0cm,0.6cm);
z2=(0.75cm,2.7cm);
z7=(1.3cm, 0cm);
pickup pencircle scaled 8;
draw z2..{dir 220}z1;
draw z1..{dir 300}z7;
endfig;
end