<?xml version="1.0" encoding="UTF-8" standalone="no"?>
<!-- Created by MetaPost 2.000 on 2021.05.15:1156 -->

<svg
   version="1.1"
   width="65.256152"
   height="88.277225"
   viewBox="0 0 65.256152 88.277225"
   id="svg6"
   sodipodi:docname="76_3.svg"
   inkscape:version="1.1 (ce6663b3b7, 2021-05-25)"
   xmlns:inkscape="http://www.inkscape.org/namespaces/inkscape"
   xmlns:sodipodi="http://sodipodi.sourceforge.net/DTD/sodipodi-0.dtd"
   xmlns="http://www.w3.org/2000/svg"
   xmlns:svg="http://www.w3.org/2000/svg">
  <defs
     id="defs10">
    <inkscape:path-effect
       effect="taper_stroke"
       id="path-effect14"
       is_visible="true"
       lpeversion="1"
       stroke_width="9"
       attach_start="0.2"
       end_offset="0.2"
       start_smoothing="0.7"
       end_smoothing="0.7"
       jointype="extrapolated"
       start_shape="center"
       end_shape="center"
       miter_limit="100" />
    <inkscape:path-effect
       effect="taper_stroke"
       id="path-effect12"
       is_visible="true"
       lpeversion="1"
       stroke_width="9"
       attach_start="0.2"
       end_offset="0.2"
       start_smoothing="0.7"
       end_smoothing="0.7"
       jointype="extrapolated"
       start_shape="center"
       end_shape="center"
       miter_limit="100" />
  </defs>
  <sodipodi:namedview
     id="namedview8"
     pagecolor="#ffffff"
     bordercolor="#666666"
     borderopacity="1.0"
     inkscape:pageshadow="2"
     inkscape:pageopacity="0.0"
     inkscape:pagecheckerboard="0"
     showgrid="false"
     inkscape:zoom="9.5154784"
     inkscape:cx="31.475033"
     inkscape:cy="44.138611"
     inkscape:window-width="1853"
     inkscape:window-height="1025"
     inkscape:window-x="67"
     inkscape:window-y="27"
     inkscape:window-maximized="1"
     inkscape:current-layer="svg6" />
  <!-- Original BoundingBox: -11.649865 -7.741810 53.606288 80.535415 -->
  <path
     d="m 9.931558,16.545081 c 1.22895,-3.960278 1.541016,-6.9771382 1.50604,-9.3509962 C 11.403662,4.8907776 11,3.464585 11,3.464585 c 0,0 -1.4855609,0.1909811 -3.5218253,1.5909859 C 5.4921677,6.421022 2.8059576,9.144564 1.3362709,13.876554 -2.7815619,27.14003 -1.7547179,41.515845 4.2064735,54.059391 c 2.1273328,4.47506 5.1733741,6.789156 7.3332925,7.858469 2.214577,1.096373 3.712201,1.07427 3.712201,1.07427 0,0 0.196856,-1.469087 -0.09693,-3.753834 C 14.852261,56.883567 14.114571,53.94169 12.335216,50.19629 7.34236,39.690317 6.4826258,27.654039 9.931558,16.545081 Z"
     style="stroke:none;stroke-width:8;stroke-linecap:round;stroke-linejoin:round;stroke-miterlimit:10;fill:#000000;fill-rule:nonzero"
     id="path2"
     inkscape:path-effect="#path-effect12"
     inkscape:original-d="M11.000000 3.464585C-0.593224 22.141596,1.121841 46.152501,15.251967 62.992130" />
  <path
     d="m 23.73554,71.765314 c -2.417537,-3.007103 -3.81719,-4.631521 -5.679599,-6.415998 -1.588874,-1.522389 -2.803974,-2.357186 -2.803974,-2.357186 0,0 -1.050161,1.079837 -1.536772,3.556293 -0.457996,2.330828 -0.367347,6.571034 2.971323,10.812539 8.832158,11.126161 25.114501,14.1791 37.377348,7.008253 4.648437,-2.743923 6.269003,-6.663277 6.686492,-9.001699 0.443573,-2.484526 -0.14407,-3.871451 -0.14407,-3.871451 0,0 -1.434982,0.337907 -3.46744,1.181296 -2.382357,0.988583 -4.275407,1.995619 -7.618101,3.922679 -8.406014,4.915518 -19.730883,2.792105 -25.785207,-4.834726 z"
     style="stroke:none;stroke-width:8;stroke-linecap:round;stroke-linejoin:round;stroke-miterlimit:10;fill:#000000;fill-rule:nonzero"
     id="path4"
     inkscape:path-effect="#path-effect14"
     inkscape:original-d="M15.251967 62.992130C18.770011 85.820897,49.057162 91.499737,60.606288 71.496065" />
</svg>
