prologues:=3;
outputformat:="svg";
outputtemplate:=("%j" & "." & outputformat);
verbatimtex
%&latex
\documentclass{minimal}
\begin{document}
etex
beginfig(0);
z1=(-1.5cm,0cm);
z2=(0cm,2.7cm);
z4=(2.6cm,2.7cm);
z5=(-0.25cm,1.55cm);
z7=(1.4cm, 0cm);
pickup pencircle scaled 8;
draw z1..{dir 120}z2;
draw z2{dir 340}..{dir 340}z7;
draw z4..{dir 290}z7;
endfig;
end
