prologues:=3;
outputformat:="svg";
outputtemplate:=("%j" & "." & outputformat);
verbatimtex
%&latex
\documentclass{minimal}
\begin{document}
etex
beginfig(0);
z1=(1cm,0.1cm);
z2=(1cm,2.6cm);
z4=(2.2cm,2.7cm);
z5=(0.95cm,1.95cm);
z6=(-0.1cm, 1.35cm);
z8=(1.8cm, 2.2cm);
z7=(2.1cm, 1.35cm);
pickup pencircle scaled 8;
draw z7..z1..z6..z2..cycle;
draw z5--z4;
endfig;
end
