%!PS-Adobe-3.0 EPSF-3.0
%%BoundingBox: -18 -5 53 82 
%%HiResBoundingBox: -17.25581 -4.5 52.82903 81.03532 
%%Creator: MetaPost 2.000
%%CreationDate: 2021.05.28:1856
%%Pages: 1
%%DocumentResources: procset mpost-minimal
%%DocumentSuppliedResources: procset mpost-minimal
%%EndComments
%%BeginProlog
%%BeginResource: procset mpost-minimal
/bd{bind def}bind def/fshow {exch findfont exch scalefont setfont show}bd
/fcp{findfont dup length dict begin{1 index/FID ne{def}{pop pop}ifelse}forall}bd
/fmc{FontMatrix dup length array copy dup dup}bd/fmd{/FontMatrix exch def}bd
/Amul{4 -1 roll exch mul 1000 div}bd/ExtendFont{fmc 0 get Amul 0 exch put fmd}bd
/ScaleFont{dup fmc 0 get Amul 0 exch put dup dup 3 get Amul 3 exch put fmd}bd
/SlantFont{fmc 2 get dup 0 eq{pop 1}if Amul FontMatrix 0 get mul 2 exch put fmd}bd
%%EndResource
%%EndProlog
%%BeginSetup
%%EndSetup
%%Page: 1 1
 0 0 0 setrgbcolor 9 0 dtransform exch truncate exch idtransform pop setlinewidth
 [] 0 setdash 1 setlinecap 1 setlinejoin 10 setmiterlimit
newpath 0 0 moveto
0 76.53532 lineto stroke
 0 9 dtransform truncate idtransform setlinewidth pop
newpath -12.75581 49.6063 moveto
22.67725 73.70094 lineto
35.25749 75.47295 46.80998 66.48747 48.18887 53.85808 curveto
49.7942 39.15463 37.38069 26.74112 22.67725 28.34645 curveto
48.18887 0 lineto stroke
showpage
%%EOF
