prologues:=3;
outputformat:="svg";
outputtemplate:=("%j" & "." & outputformat);
verbatimtex
%&latex
\documentclass{minimal}
\begin{document}
etex
beginfig(0);
z1=(0.2cm,0cm);
z2=(0.4cm,1.7cm);
z8=(1.4cm, 2.7cm);
z7=(-0.7cm, 0cm);
pickup pencircle scaled 9;
draw z7..{dir 300}z1{dir 30}..z2..{dir 140}z8;
endfig;
end
