<?xml version="1.0" encoding="UTF-8" standalone="no"?>
<!-- Created by MetaPost 2.000 on 2021.07.28:1357 -->

<svg
   xmlns:dc="http://purl.org/dc/elements/1.1/"
   xmlns:cc="http://creativecommons.org/ns#"
   xmlns:rdf="http://www.w3.org/1999/02/22-rdf-syntax-ns#"
   xmlns:svg="http://www.w3.org/2000/svg"
   xmlns="http://www.w3.org/2000/svg"
   xmlns:sodipodi="http://sodipodi.sourceforge.net/DTD/sodipodi-0.dtd"
   xmlns:inkscape="http://www.inkscape.org/namespaces/inkscape"
   version="1.1"
   width="69.743713"
   height="81.162857"
   viewBox="0 0 69.743713 81.162857"
   id="svg4"
   sodipodi:docname="83_3.svg"
   inkscape:version="0.92.3 (2405546, 2018-03-11)">
  <metadata
     id="metadata7">
    <rdf:RDF>
      <cc:Work
         rdf:about="">
        <dc:format>image/svg+xml</dc:format>
        <dc:type
           rdf:resource="http://purl.org/dc/dcmitype/StillImage" />
      </cc:Work>
    </rdf:RDF>
  </metadata>
  <defs
     id="defs8">
    <inkscape:path-effect
       effect="taper_stroke"
       id="path-effect825"
       is_visible="true"
       lpeversion="1"
       stroke_width="8"
       attach_start="0.3"
       end_offset="0.3"
       start_smoothing="0.7"
       end_smoothing="0.7"
       jointype="extrapolated"
       start_shape="center"
       end_shape="center"
       miter_limit="100"
       smoothing="0.7" />
  </defs>
  <sodipodi:namedview
     id="namedview6"
     pagecolor="#ffffff"
     bordercolor="#666666"
     borderopacity="1.0"
     inkscape:pageshadow="2"
     inkscape:pageopacity="0.0"
     inkscape:pagecheckerboard="0"
     showgrid="false"
     inkscape:zoom="7.3182455"
     inkscape:cx="12.754164"
     inkscape:cy="40.581429"
     inkscape:window-width="1600"
     inkscape:window-height="872"
     inkscape:window-x="1920"
     inkscape:window-y="0"
     inkscape:window-maximized="1"
     inkscape:current-layer="svg4" />
  <!-- Original BoundingBox: -18.673233 -3.185455 51.070480 77.977402 -->
  <path
     d="M 14.208146,48.163676 C 11.032975,45.799691 7.8412733,46.168573 6.1809155,46.853611 4.4195316,47.580331 3.826767,48.653549 3.826767,48.653549 c 0,0 0.7073988,0.962354 1.7062121,2.135321 1.0155638,1.192637 2.212353,2.554023 3.9127806,3.802845 2.0222213,1.498217 4.0231883,3.970938 6.0319603,6.906588 2.008772,2.935651 4.025267,6.291668 6.435475,9.432714 a 53.05019,53.05019 0 0 0 10e-7,10e-7 30.216561,30.216561 0 0 0 1e-6,1e-6 c 3.269735,4.261197 7.167963,6.988964 11.302964,8.120902 4.135001,1.131937 8.332609,0.647287 12.105853,-0.755091 7.546488,-2.804757 13.779669,-9.01458 18.001058,-15.433423 2.110694,-3.209421 3.706556,-6.482646 4.576138,-9.653459 0.434792,-1.585407 0.692223,-3.151361 0.669988,-4.731142 -0.02223,-1.579781 -0.328606,-3.217607 -1.19969,-4.733513 -0.871083,-1.515905 -2.372786,-2.794907 -4.071828,-3.43325 -1.699042,-0.638343 -3.510829,-0.730538 -5.397649,-0.496594 -3.773638,0.467888 -8.058013,2.201141 -13.553575,5.373995 -1.332721,0.769444 -1.871217,0.719845 -2.055919,0.685655 -0.184703,-0.03419 -0.45083,-0.119461 -1.025452,-0.835372 -0.574621,-0.71591 -1.272888,-1.989819 -1.930388,-3.57396 -0.657499,-1.584141 -1.294468,-3.466761 -1.952362,-5.424823 -0.657894,-1.958062 -1.336714,-3.991567 -2.146911,-5.943609 -0.810198,-1.952042 -1.731537,-3.834375 -3.080339,-5.514823 -1.348803,-1.680449 -3.309916,-3.231655 -5.808182,-3.694116 -2.498266,-0.462462 -5.098464,0.230309 -7.512074,1.623802 a 16.641,16.641 0 0 0 -10e-7,10e-7 22.005454,22.005454 0 0 1 -2e-6,1e-6 c -2.395041,1.382775 -4.052291,1.737591 -4.748528,1.730975 -0.348119,-0.0033 -0.454276,-0.06028 -0.489228,-0.07815 -0.03495,-0.01787 -0.03514,-0.0065 -0.105773,-0.107808 -0.141269,-0.2027 -0.452805,-1.004898 -0.424694,-2.284549 0.02811,-1.27965 0.36387,-2.950157 1.027874,-4.643055 1.328008,-3.385795 3.949182,-6.762539 7.071285,-8.4009148 1.561051,-0.8191881 3.231438,-1.2593912 5.150593,-1.201163 1.919155,0.058228 4.131906,0.623808 6.723474,2.0885905 a 22.287609,22.287609 0 0 1 1e-6,9e-7 52.863824,52.863824 0 0 1 2e-6,9e-7 c 3.449702,1.9498065 6.664476,4.2786175 9.586048,6.9398025 2.543572,2.316864 6.555394,0.916345 6.555394,0.916345 0,0 1.953363,-3.987213 -1.168239,-6.830612 C 44.649317,7.5777384 40.948006,4.8964785 36.976252,2.6516034 33.430158,0.64731225 29.901396,-0.36737411 26.558968,-0.46878515 23.216539,-0.5701962 20.105273,0.25058869 17.448385,1.6448354 12.13461,4.4333288 8.5747618,9.2932416 6.6468747,14.208445 c -0.9639435,2.457601 -1.5248523,4.95368 -1.5783416,7.388519 -0.053489,2.43484 0.3684388,4.895037 1.8594825,7.034456 0.7455218,1.06971 1.7862044,2.022113 3.0273065,2.656643 1.2411019,0.63453 2.6461839,0.941365 4.0549629,0.954751 2.817558,0.02677 5.656734,-0.973479 8.824537,-2.802408 l -3e-6,2e-6 c 1.332721,-0.769444 1.871217,-0.719845 2.055919,-0.685655 0.184703,0.03419 0.45083,0.119461 1.025452,0.835372 0.574621,0.71591 1.272888,1.989819 1.930388,3.57396 0.657499,1.584141 1.294468,3.466761 1.952362,5.424823 0.657894,1.958062 1.336714,3.991567 2.146911,5.943609 0.810198,1.952042 1.731537,3.834375 3.080339,5.514823 1.348803,1.680449 3.309916,3.231655 5.808182,3.694116 2.498266,0.462462 5.098464,-0.230309 7.512074,-1.623803 4.97336,-2.871361 8.589733,-4.121439 10.537957,-4.362997 0.974112,-0.120779 1.478534,7.75e-4 1.599642,0.04628 0.121108,0.0455 -0.05651,-0.07956 -0.0509,-0.0698 0.0056,0.0098 0.128526,0.269314 0.136843,0.860264 0.0083,0.590949 -0.102436,1.469071 -0.385908,2.502712 -0.566944,2.067283 -1.807918,4.732039 -3.54508,7.373485 -3.474324,5.282892 -8.980941,10.426347 -14.10403,12.330414 -2.561545,0.952033 -4.931171,1.160682 -7.20656,0.537804 -2.27539,-0.622877 -4.630709,-2.098039 -7.06839,-5.274882 -2.028398,-2.643461 -3.992988,-5.884188 -6.180021,-9.080353 -2.187034,-3.196165 -4.596591,-6.390329 -7.871855,-8.816897 z"
     style="stroke:none;stroke-width:9;stroke-linecap:round;stroke-linejoin:round;stroke-miterlimit:10;fill:#000000;fill-rule:nonzero"
     id="path2"
     inkscape:path-effect="#path-effect825"
     inkscape:original-d="M3.826767 48.653549C14.272308 48.653549,18.745743 60.232391,25.086609 68.495972C47.916275 98.248138,88.222137 24.476685,46.346451 48.653549C31.361130 57.305298,35.820145 17.324554,20.834824 25.976303C-1.416550 38.823120,10.457397 -7.742432,35.008041 6.133865C40.309082 9.130066,45.094437 12.958298,49.181274 17.472275" />
</svg>
