<?xml version="1.0"?>
<!-- Created by MetaPost 2.000 on 2022.03.30:1548 -->
<svg version="1.1" xmlns="http://www.w3.org/2000/svg" xmlns:xlink="http://www.w3.org/1999/xlink" width="77.031738" height="85.535324" viewBox="0 0 77.031738 85.535324">
<!-- Original BoundingBox: -21.508041 -4.500000 55.523697 81.035324 -->
  <path d="M43.677246 63.991959L15.330795 4.464676" style="stroke:rgb(0.000000%,0.000000%,0.000000%); stroke-width: 9.000000;stroke-linecap: round;stroke-linejoin: round;stroke-miterlimit: 10.000000;fill: none;"></path>
  <path d="M3.991959 81.000000L43.677246 63.991959L72.023697 4.464676" style="stroke:rgb(0.000000%,0.000000%,0.000000%); stroke-width: 9.000000;stroke-linecap: round;stroke-linejoin: round;stroke-miterlimit: 10.000000;fill: none;"></path>
</svg>
