<?xml version="1.0" encoding="UTF-8" standalone="no"?>
<!-- Created by MetaPost 2.000 on 2021.09.29:1920 -->

<svg
   xmlns:dc="http://purl.org/dc/elements/1.1/"
   xmlns:cc="http://creativecommons.org/ns#"
   xmlns:rdf="http://www.w3.org/1999/02/22-rdf-syntax-ns#"
   xmlns:svg="http://www.w3.org/2000/svg"
   xmlns="http://www.w3.org/2000/svg"
   xmlns:sodipodi="http://sodipodi.sourceforge.net/DTD/sodipodi-0.dtd"
   xmlns:inkscape="http://www.inkscape.org/namespaces/inkscape"
   version="1.1"
   width="69.509811"
   height="83.535324"
   viewBox="0 0 69.509811 83.535324"
   id="svg6"
   sodipodi:docname="89_3.svg"
   inkscape:version="0.92.3 (2405546, 2018-03-11)">
  <metadata
     id="metadata12">
    <rdf:RDF>
      <cc:Work
         rdf:about="">
        <dc:format>image/svg+xml</dc:format>
        <dc:type
           rdf:resource="http://purl.org/dc/dcmitype/StillImage" />
      </cc:Work>
    </rdf:RDF>
  </metadata>
  <defs
     id="defs10">
    <inkscape:path-effect
       effect="taper_stroke"
       id="path-effect824"
       is_visible="true"
       stroke_width="8"
       attach_start="0.2"
       end_offset="0.2"
       smoothing="0.7"
       jointype="extrapolated"
       miter_limit="100" />
    <inkscape:path-effect
       effect="taper_stroke"
       id="path-effect822"
       is_visible="true"
       stroke_width="8"
       attach_start="0.1"
       end_offset="0.1"
       smoothing="0.7"
       jointype="extrapolated"
       miter_limit="100" />
  </defs>
  <sodipodi:namedview
     pagecolor="#ffffff"
     bordercolor="#666666"
     borderopacity="1"
     objecttolerance="10"
     gridtolerance="10"
     guidetolerance="10"
     inkscape:pageopacity="0"
     inkscape:pageshadow="2"
     inkscape:window-width="1853"
     inkscape:window-height="1025"
     id="namedview8"
     showgrid="false"
     inkscape:zoom="2.8251521"
     inkscape:cx="34.754906"
     inkscape:cy="41.767662"
     inkscape:window-x="67"
     inkscape:window-y="27"
     inkscape:window-maximized="1"
     inkscape:current-layer="svg6" />
  <!-- Original BoundingBox: -14.986115 -3.500000 54.523697 80.035324 -->
  <path
     d="m 38.881285,20.201137 c -0.750048,3.228556 0.302003,5.649727 1.32215,6.972574 1.05202,1.364178 2.143016,1.802592 2.143016,1.802592 0,0 0.897916,-0.736447 1.85463,-1.946798 0.977375,-1.236491 1.959186,-2.825349 2.471363,-5.012372 1.439683,-6.176664 5.981911,-11.286614 11.94721,-13.4404645 2.111899,-0.7650316 3.574703,-1.9263352 4.688089,-3.0419263 1.089849,-1.0920075 1.715954,-2.0700662 1.715954,-2.0700662 0,0 -0.563289,-1.032078 -2.041389,-1.9169201 C 61.54899,0.68972169 59.021181,-0.07123892 55.902816,1.0521225 47.371348,4.1325226 40.940295,11.367377 38.881285,20.201137 Z"
     style="stroke:none;stroke-width:7;stroke-linecap:round;stroke-linejoin:round;stroke-miterlimit:10;fill:#000000;fill-rule:nonzero"
     id="path2"
     inkscape:path-effect="#path-effect824"
     inkscape:original-d="M42.346451 28.976303C40.743637 15.398285,51.351410 3.464676,65.023697 3.464676" />
  <path
     d="M 7.0434198,10.552076 C 7.9275251,9.0932831 8.3364976,7.5633474 8.4501481,6.0145856 8.5567782,4.561494 8.330795,3.464676 8.330795,3.464676 c 0,0 -1.0274073,-0.4699146 -2.5641521,-0.4336876 -1.4607581,0.034436 -3.7300736,0.6092148 -5.44692329,3.1861301 -0.70768253,1.0976452 -1.25165504,2.2411454 -1.55455721,3.4749447 -0.3029021,1.2337988 -0.3382769,2.5685968 -0.045691,3.8145938 0.29258576,1.245997 0.89494866,2.362101 1.62379,3.266665 0.7288413,0.904564 1.5757124,1.620978 2.4735849,2.232433 1.7957451,1.22291 3.822722,2.064318 6.035025,2.808765 2.2123027,0.744447 4.6134167,1.367987 7.0968377,1.957711 4.966843,1.179446 10.281284,2.22951 14.665695,3.525103 2.192205,0.647797 4.145599,1.358869 5.649001,2.104654 1.503402,0.745785 2.516191,1.533156 2.990639,2.111443 0.820877,1.000535 1.12384,1.839809 1.220272,2.91727 0.09643,1.07746 -0.09455,2.435172 -0.630346,4.044829 -1.0716,3.219314 -3.518681,7.260748 -6.141343,11.476775 -2.622663,4.216026 -5.419803,8.613232 -6.989345,13.333018 -0.78477,2.359893 -1.261965,4.840333 -1.075586,7.411287 0.18638,2.570953 1.104668,5.20324 2.814166,7.482105 1.924663,2.483877 4.311907,2.821614 5.7716,2.656617 C 35.762554,80.66136 36.677246,80 36.677246,80 c 0,0 0.03299,-1.114178 -0.217088,-2.495612 -0.26418,-1.459352 -0.730502,-2.874383 -1.608767,-4.126302 -0.824989,-1.09976 -1.148205,-2.067696 -1.234634,-3.259913 -0.08643,-1.192217 0.132262,-2.637895 0.687785,-4.308415 1.111046,-3.341039 3.572123,-7.42184 6.191002,-11.631784 2.618879,-4.209945 5.396666,-8.542446 6.938956,-13.175816 0.771145,-2.316685 1.234366,-4.755002 1.007967,-7.284606 -0.2264,-2.529604 -1.223301,-5.108429 -3.003609,-7.278377 -1.529272,-1.863971 -3.488849,-3.1465 -5.620325,-4.20385 -2.131476,-1.05735 -4.475473,-1.882645 -6.93704,-2.610038 -4.923134,-1.454786 -10.341765,-2.51039 -15.084469,-3.636612 -2.371353,-0.56311 -4.569132,-1.142404 -6.393709,-1.75638 C 9.5787371,13.618319 8.1308459,12.945713 7.3198665,12.393433 6.9143767,12.117293 6.6749214,11.880817 6.5727387,11.753998 6.470556,11.627179 6.4971972,11.633407 6.50763,11.677836 c 0.010433,0.04443 -0.013526,0.08597 0.026823,-0.07838 0.040349,-0.164351 0.1714623,-0.523892 0.5089673,-1.047376 z"
     style="stroke:none;stroke-width:7;stroke-linecap:round;stroke-linejoin:round;stroke-miterlimit:10;fill:#000000;fill-rule:nonzero"
     id="path4"
     inkscape:path-effect="#path-effect822"
     inkscape:original-d="M8.330795 3.464676C-13.731827 21.977707,33.441025 18.121826,42.346451 28.976303C53.907272 43.067337,14.057907 66.940765,36.677246 80.000000" />
</svg>
