prologues:=3;
outputformat:="svg";
outputtemplate:=("%j" & "." & outputformat);
verbatimtex
%&latex
\documentclass{minimal}
\begin{document}
etex
beginfig(0);
z1=(0cm,0cm);
z2=(0cm,2.7cm);
z7=(1cm, 0cm);
z3=(1cm,2.7cm);
pickup pencircle scaled 8;
draw z3--z2--z1--z7;
endfig;
end
