<?xml version="1.0"?>
<!-- Created by MetaPost 2.000 on 2022.03.30:1646 -->
<svg version="1.1" xmlns="http://www.w3.org/2000/svg" xmlns:xlink="http://www.w3.org/1999/xlink" width="64.692902" height="84.535324" viewBox="0 0 64.692902 84.535324">
<!-- Original BoundingBox: -32.346451 -4.000000 32.346451 80.535324 -->
  <path d="M3.653549 80.000000L19.244186 24.724503L54.677246 3.464676" style="stroke:rgb(0.000000%,0.000000%,0.000000%); stroke-width: 8.000000;stroke-linecap: round;stroke-linejoin: round;stroke-miterlimit: 10.000000;fill: none;"></path>
  <path d="M49.008041 51.653549L14.991959 51.653549" style="stroke:rgb(0.000000%,0.000000%,0.000000%); stroke-width: 8.000000;stroke-linecap: round;stroke-linejoin: round;stroke-miterlimit: 10.000000;fill: none;"></path>
  <path d="M60.346451 75.748199L32.000000 75.748199L32.000000 3.464676" style="stroke:rgb(0.000000%,0.000000%,0.000000%); stroke-width: 8.000000;stroke-linecap: round;stroke-linejoin: round;stroke-miterlimit: 10.000000;fill: none;"></path>
</svg>
