<?xml version="1.0" encoding="UTF-8" standalone="no"?>
<!-- Created by MetaPost 2.000 on 2021.08.14:1941 -->

<svg
   xmlns:dc="http://purl.org/dc/elements/1.1/"
   xmlns:cc="http://creativecommons.org/ns#"
   xmlns:rdf="http://www.w3.org/1999/02/22-rdf-syntax-ns#"
   xmlns:svg="http://www.w3.org/2000/svg"
   xmlns="http://www.w3.org/2000/svg"
   xmlns:sodipodi="http://sodipodi.sourceforge.net/DTD/sodipodi-0.dtd"
   xmlns:inkscape="http://www.inkscape.org/namespaces/inkscape"
   version="1.1"
   width="95.863907"
   height="88.551392"
   viewBox="0 0 95.863907 88.551392"
   id="svg6"
   sodipodi:docname="ea.svg"
   inkscape:version="0.92.3 (2405546, 2018-03-11)">
  <metadata
     id="metadata12">
    <rdf:RDF>
      <cc:Work
         rdf:about="">
        <dc:format>image/svg+xml</dc:format>
        <dc:type
           rdf:resource="http://purl.org/dc/dcmitype/StillImage" />
      </cc:Work>
    </rdf:RDF>
  </metadata>
  <defs
     id="defs10">
    <inkscape:path-effect
       effect="taper_stroke"
       id="path-effect824"
       is_visible="true"
       stroke_width="9"
       attach_start="0.2"
       end_offset="0.2"
       smoothing="0.7"
       jointype="extrapolated"
       miter_limit="100" />
    <inkscape:path-effect
       effect="taper_stroke"
       id="path-effect822"
       is_visible="true"
       stroke_width="9"
       attach_start="0.2"
       end_offset="0.2"
       smoothing="0.7"
       jointype="round"
       miter_limit="100" />
  </defs>
  <sodipodi:namedview
     pagecolor="#ffffff"
     bordercolor="#666666"
     borderopacity="1"
     objecttolerance="10"
     gridtolerance="10"
     guidetolerance="10"
     inkscape:pageopacity="0"
     inkscape:pageshadow="2"
     inkscape:window-width="1600"
     inkscape:window-height="872"
     id="namedview8"
     showgrid="false"
     inkscape:zoom="2.665119"
     inkscape:cx="-37.992914"
     inkscape:cy="44.275696"
     inkscape:window-x="1920"
     inkscape:window-y="0"
     inkscape:window-maximized="1"
     inkscape:current-layer="svg6" />
  <!-- Original BoundingBox: -4.654343 -30.188690 91.209564 58.362701 -->
  <path
     d="M 4.6038845,8.2707319 C 1.2333242,11.283561 4,15.480316 4,15.480316 c 0,0 4.4511462,1.422466 6.601488,-0.499238 4.416016,-3.946966 10.13631,-6.2287491 16.158809,-6.3399224 4.939507,-0.091174 9.656178,1.4814954 12.939353,4.0251694 3.283175,2.543675 5.154842,5.813597 5.154842,9.900615 v 32.598236 a 4.5,4.5 0 0 0 4.5,4.5 h 41.102265 a 4.5,4.5 0 0 0 4.443007,-3.786074 c 1.188729,-7.39787 -1.145029,-14.523854 -5.652487,-19.675176 -4.507458,-5.151323 -11.260624,-8.41028 -18.750819,-8.214009 -7.144388,0.187209 -13.436207,3.492295 -17.891495,8.409214 -4.455288,4.916919 -7.203478,11.427736 -7.737421,18.423587 -0.608462,7.972188 1.637843,15.6717 6.062069,21.705325 4.424226,6.033624 11.129802,10.410127 19.105054,11.446093 a 4.5,4.5 0 0 0 3e-6,0 c 7.431827,0.96537 14.823478,-1.367463 20.317771,-6.215141 3.145553,-2.776046 0.104318,-6.750954 0.104318,-6.750954 0,0 -4.388142,-1.471163 -6.058755,0.0023 -3.567861,3.147965 -8.363831,4.667524 -13.204001,4.038802 -5.438992,-0.706512 -9.890688,-3.593764 -13.006497,-7.84301 -3.11581,-4.249247 -4.792303,-9.851722 -4.346062,-15.698475 0.386223,-5.060376 2.414827,-9.734587 5.432856,-13.065326 3.018028,-3.330739 6.896047,-5.33594 11.457912,-5.455478 4.765222,-0.124866 8.905763,1.902401 11.74191,5.143676 2.836148,3.241275 4.295893,7.614261 3.53963,12.320745 l 4.443007,-3.786074 -36.602265,0 V 22.56694 c 0,-7.015475 -3.547194,-13.0673301 -8.642761,-17.0151748 C 40.116164,1.6039204 33.494213,-0.48467329 26.594198,-0.35731161 a 4.5,4.5 0 0 0 -6e-6,1.1e-7 C 18.404339,-0.20613052 10.615151,2.8979546 4.6038845,8.2707319 Z"
     style="stroke:none;stroke-width:9;stroke-linecap:round;stroke-linejoin:round;stroke-miterlimit:10;fill:#000000;fill-rule:nonzero"
     id="path2"
     inkscape:path-effect="#path-effect822"
     inkscape:original-d="M4.000000 15.480316C9.460922 8.472610,17.794525 4.305893,26.677246 4.141922C38.516769 3.923386,49.354492 11.464447,49.354492 22.566940L49.354492 55.165176L90.456757 55.165176C92.401749 43.060822,82.869751 32.167236,70.614334 32.488373C58.908081 32.795120,50.274658 43.108948,49.354492 55.165176C48.299789 68.984116,57.200089 81.769150,70.614334 83.511627C78.284332 84.507935,85.888412 81.249176,90.456757 75.008041" />
  <path
     d="m 43.11824,34.153549 c 4.365376,0 6.236252,-4.5 6.236252,-4.5 0,0 -1.870876,-4.5 -6.236252,-4.5 H 18.542253 c -5.426041,-0.83043 -10.6292005,1.086318 -14.1886499,4.574617 -3.6522744,3.57927 -5.685235,8.922149 -4.79813459,14.519678 0.71707699,4.524703 3.27938329,8.320568 6.66244909,10.839802 3.3830661,2.519235 7.5828604,3.86905 11.9553154,3.86905 4.372459,0 8.572251,-1.349821 11.955312,-3.869058 3.383061,-2.519238 5.94536,-6.315099 6.662437,-10.839793 0.709681,-4.478021 -0.448527,-8.820403 -2.811564,-12.181249 -2.363038,-3.360846 -5.925402,-5.814318 -10.075456,-6.725452 -2.346114,-0.50958 -3.993848,0.753029 -4.793746,1.921006 -0.824164,1.20341 -0.936983,2.391399 -0.936983,2.391399 0,0 0.588943,1.025469 1.321603,2.092761 0.73313,1.067978 1.543847,2.175178 2.479165,2.385469 1.882547,0.413308 3.548338,1.554297 4.643095,3.111323 1.094757,1.557026 1.623983,3.455928 1.284824,5.595997 -0.330302,2.084178 -1.422857,3.744929 -3.148683,5.030085 -1.725826,1.285157 -4.088953,2.087512 -6.580004,2.087512 -2.491055,0 -4.854188,-0.802353 -6.580016,-2.087509 C 9.8673889,46.584031 8.7748338,44.923284 8.4445316,42.839101 a 8.1541731,8.1541731 0 0 1 -10e-8,-10e-7 8.5540658,8.5540658 0 0 1 -10e-8,-1e-6 c -0.4239493,-2.675083 0.5074761,-5.016064 2.2084656,-6.683053 1.700989,-1.666988 4.060296,-2.550962 6.726277,-2.073092 a 8.5540729,8.5540729 0 0 1 0.351304,0.07059 z"
     style="stroke:none;stroke-width:9;stroke-linecap:round;stroke-linejoin:round;stroke-miterlimit:10;fill:#000000;fill-rule:nonzero"
     id="path4"
     inkscape:path-effect="#path-effect824"
     inkscape:original-d="M49.354492 29.653549L18.173233 29.653549C9.928772 28.175751,2.688950 35.270859,4.000000 43.543472C5.047379 50.152359,11.309723 54.456696,18.173233 54.456696C25.036743 54.456696,31.299072 50.152344,32.346451 43.543472C33.657501 35.270859,26.417694 28.175766,18.173233 29.653549" />
</svg>
