This is MetaPost, version 2.000 (TeX Live 2017/Debian) (kpathsea version 6.2.3)  31 JUL 2021 19:18
**ee2.mp
(/usr/share/texlive/texmf-dist/metapost/base/mpost.mp
(/usr/share/texlive/texmf-dist/metapost/base/plain.mp
Preloading the plain mem file, version 1.005) ) (./ee2.mp [0] )
1 output file written: ee2.svg

