prologues:=3;
outputformat:="svg";
outputtemplate:=("%j" & "." & outputformat);
verbatimtex
%&latex
\documentclass{minimal}
\begin{document}
etex
beginfig(0);
z1=(0cm,0cm);
z2=(0cm,2.5cm);
z3=(-0.5cm,1.85cm);
z4=(0.8cm,3cm);
z5=(-0.45cm,2.25cm);
z6=(0.8cm, 1.85cm);
z7=(1.6cm, 0.1cm);
z8=(2.4cm, 1.85cm);
z9=(4.45cm, 1.85cm);
z10=(3.75cm, 2.6cm);
z12=(3cm, 1.85cm);
z13=(3.75cm, 0.8cm);
z14=(4.45cm, 1.1cm);
pickup pencircle scaled 9;
draw z1--z2;
draw z4--z5;
draw z3--z6--z7--z8--z9..z10..z12..z13..z14;
endfig;
end
