<?xml version="1.0" encoding="UTF-8" standalone="no"?>
<!-- Created by MetaPost 2.000 on 2021.08.14:1959 -->

<svg
   xmlns:dc="http://purl.org/dc/elements/1.1/"
   xmlns:cc="http://creativecommons.org/ns#"
   xmlns:rdf="http://www.w3.org/1999/02/22-rdf-syntax-ns#"
   xmlns:svg="http://www.w3.org/2000/svg"
   xmlns="http://www.w3.org/2000/svg"
   xmlns:sodipodi="http://sodipodi.sourceforge.net/DTD/sodipodi-0.dtd"
   xmlns:inkscape="http://www.inkscape.org/namespaces/inkscape"
   version="1.1"
   width="111.299774"
   height="119.728043"
   viewBox="0 0 111.299774 119.728043"
   id="svg6"
   sodipodi:docname="lle.svg"
   inkscape:version="0.92.3 (2405546, 2018-03-11)">
  <metadata
     id="metadata12">
    <rdf:RDF>
      <cc:Work
         rdf:about="">
        <dc:format>image/svg+xml</dc:format>
        <dc:type
           rdf:resource="http://purl.org/dc/dcmitype/StillImage" />
      </cc:Work>
    </rdf:RDF>
  </metadata>
  <defs
     id="defs10">
    <inkscape:path-effect
       effect="taper_stroke"
       id="path-effect824"
       is_visible="true"
       stroke_width="9"
       attach_start="0.2"
       end_offset="0.2"
       smoothing="0.7"
       jointype="round"
       miter_limit="100" />
    <inkscape:path-effect
       effect="taper_stroke"
       id="path-effect822"
       is_visible="true"
       stroke_width="9"
       attach_start="0.2"
       end_offset="0.2"
       smoothing="0.7"
       jointype="round"
       miter_limit="100" />
  </defs>
  <sodipodi:namedview
     pagecolor="#ffffff"
     bordercolor="#666666"
     borderopacity="1"
     objecttolerance="10"
     gridtolerance="10"
     guidetolerance="10"
     inkscape:pageopacity="0"
     inkscape:pageshadow="2"
     inkscape:window-width="1600"
     inkscape:window-height="872"
     id="namedview8"
     showgrid="false"
     inkscape:zoom="1.9711339"
     inkscape:cx="-60.5269"
     inkscape:cy="59.864021"
     inkscape:window-x="1920"
     inkscape:window-y="0"
     inkscape:window-maximized="1"
     inkscape:current-layer="svg6" />
  <!-- Original BoundingBox: -38.515656 -30.188690 72.784119 89.539352 -->
  <path
     d="m 105.92699,112.759 c 3.14556,-2.77605 0.10432,-6.75096 0.10432,-6.75096 0,0 -4.38814,-1.47116 -6.058756,0.002 -3.567865,3.14797 -8.363845,4.66753 -13.204007,4.0388 a 4.5,4.5 0 0 0 -5e-6,0 c -5.438993,-0.70651 -9.890684,-3.59376 -13.00649,-7.84301 -3.115805,-4.249246 -4.792296,-9.851721 -4.346055,-15.698474 0.38623,-5.060372 2.414832,-9.734582 5.432856,-13.06532 3.018024,-3.33074 6.896035,-5.335944 11.457902,-5.455487 4.765219,-0.124872 8.905762,1.902394 11.741913,5.143671 2.836152,3.241277 4.295902,7.614268 3.539632,12.32075 l 4.44301,-3.786074 H 64.929047 a 4.5,4.5 0 0 0 -4.484043,4.121372 C 59.943695,91.723487 56.113209,96.8309 50.554147,98.974595 a 4.5,4.5 0 0 0 -3e-6,1e-6 c -3.203943,1.235514 -5.935763,1.317224 -8.239516,0.788126 -2.303753,-0.529094 -4.202165,-1.706789 -5.557648,-3.172248 -1.355484,-1.465458 -2.125796,-3.197845 -2.280681,-4.739396 -0.154885,-1.541551 0.174645,-2.86719 1.301672,-4.210306 3.757341,-4.477751 5.589342,-9.636015 6.154109,-14.734341 0.564766,-5.098325 -0.02877,-10.164153 -0.905613,-15.09847 C 40.149627,52.873644 38.97404,48.049383 38.165506,43.499452 37.356973,38.949521 36.930938,34.695374 37.343999,30.966546 37.806216,26.93458 37.974646,24.419508 38.047391,21.911618 38.11305,19.648038 38,18.133865 38,18.133865 c 0,0 -1.559088,-0.0493 -3.787784,1.446452 -2.114163,1.418886 -5.201305,4.731901 -5.8135,10.395316 -0.564767,5.098326 0.02877,10.164154 0.905613,15.098471 0.87684,4.934317 2.052427,9.758578 2.86096,14.308509 0.808534,4.549931 1.234568,8.804077 0.821507,12.532905 -0.41306,3.728828 -1.556288,6.904895 -4.103178,9.940109 -2.66475,3.175674 -3.735712,7.177985 -3.362233,10.895182 0.37348,3.717197 2.060389,7.174357 4.628553,9.950881 2.568163,2.77653 6.059825,4.89326 10.15014,5.83267 4.090314,0.93941 8.756557,0.6637 13.492242,-1.16249 7.438962,-2.86863 12.9435,-9.14807 14.914929,-16.706694 l 37.324061,0 a 4.5,4.5 0 0 0 4.44301,-3.786074 c 1.18873,-7.397872 -1.14503,-14.523859 -5.6525,-19.675183 -4.50746,-5.151324 -11.260631,-8.410282 -18.750829,-8.214002 -7.144386,0.187219 -13.436197,3.49231 -17.891478,8.409228 -4.45528,4.916918 -7.203464,11.427728 -7.737416,18.423568 a 4.5,4.5 0 0 0 0,5e-6 c -0.608461,7.972186 1.637838,15.671702 6.06206,21.705322 4.424221,6.03363 11.129793,10.41013 19.105045,11.4461 7.431834,0.96538 14.823498,-1.36746 20.317788,-6.21514 z"
     style="stroke:none;stroke-width:9;stroke-linecap:round;stroke-linejoin:round;stroke-miterlimit:10;fill:#000000;fill-rule:nonzero"
     id="path2"
     inkscape:path-effect="#path-effect824"
     inkscape:original-d="M106.031311 106.008041C101.462967 112.249176,93.858871 115.507950,86.188873 114.511627C72.774628 112.769150,63.874344 99.984116,64.929047 86.165176C65.849228 74.108963,74.482620 63.795135,86.188873 63.488373C98.444290 63.167221,107.976303 74.060822,106.031311 86.165176L64.929047 86.165176C64.283615 93.808945,59.330490 100.413239,52.173233 103.173233C36.293976 109.296631,24.747238 93.785782,32.330795 84.748199C48.091370 65.965790,22.239426 36.916275,38.000000 18.133865" />
  <path
     d="m 8.484344,20.118158 c 0,-11.3102569 -4.5,-16.15751 -4.5,-16.15751 0,0 -4.5,4.8472531 -4.5,16.15751 v 64.630041 a 4.5,4.5 0 0 0 4.5,4.5 h 22.677161 c 3.968503,0 5.66929,-4.5 5.66929,-4.5 0,0 -1.700787,-4.5 -5.66929,-4.5 H 8.484344 Z"
     style="stroke:none;stroke-width:9;stroke-linecap:round;stroke-linejoin:round;stroke-miterlimit:10;fill:#000000;fill-rule:nonzero"
     id="path4"
     inkscape:path-effect="#path-effect822"
     inkscape:original-d="M3.984344 3.960648L3.984344 84.748199L32.330795 84.748199" />
</svg>
