<?xml version="1.0" encoding="UTF-8" standalone="no"?>
<!-- Created by MetaPost 2.000 on 2021.08.15:1626 -->

<svg
   xmlns:dc="http://purl.org/dc/elements/1.1/"
   xmlns:cc="http://creativecommons.org/ns#"
   xmlns:rdf="http://www.w3.org/1999/02/22-rdf-syntax-ns#"
   xmlns:svg="http://www.w3.org/2000/svg"
   xmlns="http://www.w3.org/2000/svg"
   xmlns:sodipodi="http://sodipodi.sourceforge.net/DTD/sodipodi-0.dtd"
   xmlns:inkscape="http://www.inkscape.org/namespaces/inkscape"
   version="1.1"
   width="255.951553"
   height="106.979141"
   viewBox="0 0 255.951553 106.979141"
   id="svg14"
   sodipodi:docname="rice.svg"
   inkscape:version="0.92.3 (2405546, 2018-03-11)">
  <metadata
     id="metadata20">
    <rdf:RDF>
      <cc:Work
         rdf:about="">
        <dc:format>image/svg+xml</dc:format>
        <dc:type
           rdf:resource="http://purl.org/dc/dcmitype/StillImage" />
      </cc:Work>
    </rdf:RDF>
  </metadata>
  <defs
     id="defs18">
    <inkscape:path-effect
       effect="taper_stroke"
       id="path-effect835"
       is_visible="true"
       stroke_width="9"
       attach_start="0.2"
       end_offset="0.2"
       smoothing="0.7"
       jointype="round"
       miter_limit="100" />
    <inkscape:path-effect
       effect="taper_stroke"
       id="path-effect833"
       is_visible="true"
       stroke_width="9"
       attach_start="0.2"
       end_offset="0.2"
       smoothing="0.7"
       jointype="extrapolated"
       miter_limit="100" />
    <inkscape:path-effect
       effect="taper_stroke"
       id="path-effect831"
       is_visible="true"
       stroke_width="9"
       attach_start="0.2"
       end_offset="0.2"
       smoothing="0.7"
       jointype="extrapolated"
       miter_limit="100" />
    <inkscape:path-effect
       effect="taper_stroke"
       id="path-effect829"
       is_visible="true"
       stroke_width="9"
       attach_start="0.2"
       end_offset="0.2"
       smoothing="0.7"
       jointype="round"
       miter_limit="100" />
    <inkscape:path-effect
       effect="taper_stroke"
       id="path-effect827"
       is_visible="true"
       stroke_width="9"
       attach_start="0.2"
       end_offset="0.2"
       smoothing="0.7"
       jointype="round"
       miter_limit="100" />
  </defs>
  <sodipodi:namedview
     pagecolor="#ffffff"
     bordercolor="#666666"
     borderopacity="1"
     objecttolerance="10"
     gridtolerance="10"
     guidetolerance="10"
     inkscape:pageopacity="0"
     inkscape:pageshadow="2"
     inkscape:window-width="1600"
     inkscape:window-height="872"
     id="namedview16"
     showgrid="false"
     inkscape:zoom="1.828471"
     inkscape:cx="127.97578"
     inkscape:cy="53.489571"
     inkscape:window-x="1920"
     inkscape:window-y="0"
     inkscape:window-maximized="1"
     inkscape:current-layer="svg14" />
  <!-- Original BoundingBox: -125.057037 -20.267685 130.894516 86.711456 -->
  <path
     d="M 120.5,74.66142 C 120.5,82.598426 125,86 125,86 c 0,0 4.5,-3.401574 4.5,-11.33858 V 40.645678 c 0,-7.937006 -4.5,-11.33858 -4.5,-11.33858 0,0 -4.5,3.401574 -4.5,11.33858 z"
     style="stroke:none;stroke-width:9;stroke-linecap:round;stroke-linejoin:round;stroke-miterlimit:10;fill:#000000;fill-rule:nonzero"
     id="path2"
     inkscape:path-effect="#path-effect833"
     inkscape:original-d="M125.000000 86.000000L125.000000 29.307098" />
  <path
     d="m 12.748041,21.972275 c -5.7543172,0 -8.220453,4.5 -8.220453,4.5 0,0 2.4661358,4.5 8.220453,4.5 h 32.881811 a 4.5,4.5 0 0 0 4.443007,-3.786074 C 51.261588,19.788329 48.927826,12.662342 44.420364,7.5110174 39.912903,2.3596932 33.159731,-0.89926464 25.669533,-0.70298471 18.525146,-0.51576569 12.233333,2.7893239 7.7780496,7.7062426 3.3227665,12.623161 0.57458125,19.133974 0.04063772,26.129817 -0.56782347,34.102003 1.6784761,41.801514 6.1026979,47.835139 10.52692,53.868764 17.232493,58.245269 25.207746,59.281235 a 4.5,4.5 0 0 0 5e-6,0 c 9.1698,1.191124 18.281686,-2.647672 23.837022,-10.017055 L 62.418266,35.890687 c 2.381126,-2.381126 0.219628,-6.583589 0.219628,-6.583589 0,0 -4.202463,-2.161498 -6.583589,0.219628 L 42.447871,43.133159 A 4.5,4.5 0 0 0 41.99868,43.65721 c -3.603592,4.923102 -9.581367,7.484909 -15.631599,6.699007 -5.438992,-0.706513 -9.890682,-3.593764 -13.006488,-7.843009 -3.115806,-4.249246 -4.7922965,-9.851722 -4.3460547,-15.698476 0.3862224,-5.06037 2.4148237,-9.734578 5.4328487,-13.065317 3.018026,-3.330739 6.896043,-5.3359443 11.45791,-5.4554883 4.765218,-0.1248721 8.905761,1.9023943 11.741912,5.1436713 2.057165,2.351019 3.390186,5.297447 3.678659,8.534677 z"
     style="stroke:none;stroke-width:9;stroke-linecap:round;stroke-linejoin:round;stroke-miterlimit:10;fill:#000000;fill-rule:nonzero"
     id="path4"
     inkscape:path-effect="#path-effect827"
     inkscape:original-d="M4.527588 26.472275L45.629852 26.472275C47.574844 14.367920,38.042831 3.474319,25.787415 3.795471C14.081161 4.102234,5.447754 14.416061,4.527588 26.472275C3.472885 40.291214,12.373169 53.076248,25.787415 54.818726C33.457428 55.815033,41.061493 52.556274,45.629852 46.315140L62.637894 29.307098" />
  <path
     d="m 67.137894,33.842547 c 0,-3.174814 -4.5,-4.535449 -4.5,-4.535449 0,0 -4.5,1.360635 -4.5,4.535449 v 18.141797 a 4.5,4.5 0 0 0 0.180022,1.260074 c 3.494213,11.979395 14.518628,20.247541 26.997224,20.247541 a 4.5,4.5 0 0 0 2.415935,-0.70352 L 143.17725,37.504614 v 16.718341 c -0.91497,3.65443 -0.56935,7.226284 0.85427,10.112669 1.50978,3.061079 4.07531,5.242509 6.89178,6.517457 2.81647,1.274948 5.92947,1.719692 8.99027,1.284411 3.06081,-0.435282 6.13454,-1.811048 8.44109,-4.326902 2.81906,-3.294228 2.10068,-6.512491 1.2764,-8.00123 -0.91072,-1.644846 -2.11138,-2.155811 -2.11138,-2.155811 0,0 -1.09412,0.646145 -2.3698,1.51302 -1.5171,1.030937 -2.39208,1.675793 -3.42916,2.562009 -0.7214,0.786869 -1.76751,1.312724 -3.0743,1.498565 -1.30679,0.18584 -2.80913,-0.02879 -4.0116,-0.573124 -1.20247,-0.54433 -2.05948,-1.342076 -2.53168,-2.299472 -0.47221,-0.957395 -0.7163,-2.183136 -0.10592,-4.275738 a 4.5,4.5 0 0 0 0.18003,-1.260083 V 29.307098 a 4.5,4.5 0 0 0 -6.91594,-3.79648 L 84.067786,64.451839 C 76.27762,63.949444 69.571793,58.771037 67.137894,51.307255 Z"
     style="stroke:none;stroke-width:9;stroke-linecap:round;stroke-linejoin:round;stroke-miterlimit:10;fill:#000000;fill-rule:nonzero"
     id="path6"
     inkscape:path-effect="#path-effect829"
     inkscape:original-d="M62.637894 29.307098L62.637894 51.984344C65.577682 62.062973,74.816513 68.991959,85.315140 68.991959L147.677246 29.307098L147.677246 54.818726C143.319092 69.759903,167.519684 73.217361,167.519684 57.653549" />
  <path
     d="M147.677246 17.968689L147.677246 3.795471"
     style="stroke:rgb(0.000000%,0.000000%,0.000000%); stroke-width: 9.000000;stroke-linecap: round;stroke-linejoin: round;stroke-miterlimit: 10.000000;fill: none;"
     id="path8" />
  <path
     d="m 201.97359,42.047915 c 1.58738,1.388941 5.23094,-1.402407 5.23094,-1.402407 0,0 2.28295,-3.981869 0.69558,-5.370809 l -9.07072,-7.936804 a 4.5,4.5 0 0 0 -6.06262,0.124106 l -28.34645,26.929046 a 4.5,4.5 0 0 0 0,6.525004 l 28.34645,26.929047 a 4.5,4.5 0 0 0 5.91047,0.251427 l 12.94061,-10.352339 h 39.52377 a 4.5,4.5 0 0 0 4.44299,-3.785969 c 1.18892,-7.397971 -1.14477,-14.524114 -5.65224,-19.675555 -4.50748,-5.151442 -11.26075,-8.410485 -18.75107,-8.214177 a 4.5,4.5 0 0 0 0,0 c -7.14446,0.187247 -13.43631,3.492425 -17.89158,8.409437 -4.45528,4.917012 -7.20342,11.42792 -7.73732,18.423839 l 0,-2e-6 c -0.60841,7.972185 1.63789,15.671696 6.06211,21.705327 4.42421,6.033634 11.12978,10.410144 19.10504,11.446064 7.43194,0.96536 14.82367,-1.36764 20.31791,-6.215537 3.14552,-2.776175 0.10416,-6.751004 0.10416,-6.751004 0,0 -4.3882,-1.471002 -6.05878,0.0025 -3.5678,3.148084 -8.36379,4.667738 -13.204,4.039029 a 4.5,4.5 0 0 0 0,-10e-7 c -5.43897,-0.706478 -9.89063,-3.593709 -13.00643,-7.842961 -3.1158,-4.249252 -4.79231,-9.851766 -4.34611,-15.698551 a 4.5,4.5 0 0 0 0,-2e-6 c 0.3862,-5.060462 2.41479,-9.734772 5.43282,-13.065586 3.01803,-3.330813 6.89606,-5.336067 11.45797,-5.45563 4.76531,-0.124889 8.9059,1.902431 11.74206,5.14378 2.83616,3.24135 4.29586,7.614429 3.53948,12.32098 l 4.44299,-3.785969 h -41.10227 a 4.5,4.5 0 0 0 -2.8111,0.986071 l -11.10833,8.886538 -22.06665,-20.963246 21.9375,-20.840557 z"
     style="stroke:none;stroke-width:9;stroke-linecap:round;stroke-linejoin:round;stroke-miterlimit:10;fill:#000000;fill-rule:nonzero"
     id="path10"
     inkscape:path-effect="#path-effect835"
     inkscape:original-d="M207.204529 40.645508L195.866135 30.724503L167.519684 57.653549L195.866135 84.582596L210.039352 73.244186L251.141617 73.244186C253.086929 61.139664,243.554825 50.245743,231.299194 50.566940C219.592819 50.873749,210.959442 61.187805,210.039352 73.244186C208.984741 87.063156,217.884964 99.848236,231.299194 101.590637C238.969284 102.586929,246.573425 99.327972,251.141617 93.086609" />
  <path
     d="m 106.82275,34.126028 c 0,-3.373251 -4.5,-4.81893 -4.5,-4.81893 0,0 -4.499996,1.445679 -4.499996,4.81893 v 14.456791 c 0,3.373251 4.499996,4.81893 4.499996,4.81893 0,0 4.5,-1.445679 4.5,-4.81893 z"
     style="stroke:none;stroke-width:9;stroke-linecap:round;stroke-linejoin:round;stroke-miterlimit:10;fill:#000000;fill-rule:nonzero"
     id="path12"
     inkscape:path-effect="#path-effect831"
     inkscape:original-d="M102.322754 29.307098L102.322754 53.401749" />
</svg>
