<?xml version="1.0" encoding="UTF-8"?>
<glyph name="U.random2" format="1">
  <advance width="946"/>
  <outline>
    <contour>
      <point x="727.568" y="322.426" type="curve" smooth="yes"/>
      <point x="777.588" y="420.014"/>
      <point x="774.57" y="537.67"/>
      <point x="719.619" y="632.562" type="curve" smooth="yes"/>
      <point x="699.688" y="667.045"/>
      <point x="689.316" y="693.422"/>
      <point x="682.979" y="716.303" type="curve" smooth="yes"/>
      <point x="676.953" y="738.08"/>
      <point x="676.27" y="752.846"/>
      <point x="676.27" y="752.846" type="curve"/>
      <point x="676.27" y="752.846"/>
      <point x="690.938" y="755.873"/>
      <point x="714.619" y="748.305" type="curve" smooth="yes"/>
      <point x="737.48" y="741"/>
      <point x="771.992" y="721.664"/>
      <point x="797.5" y="677.67" type="curve" smooth="yes"/>
      <point x="867.773" y="556.332"/>
      <point x="871.621" y="406.156"/>
      <point x="807.666" y="281.371" type="curve" smooth="yes"/>
      <point x="784.443" y="236.127"/>
      <point x="750.967" y="215.053"/>
      <point x="728.516" y="206.586" type="curve" smooth="yes"/>
      <point x="705.254" y="197.807"/>
      <point x="690.439" y="200.082"/>
      <point x="690.439" y="200.082" type="curve"/>
      <point x="690.439" y="200.082"/>
      <point x="690.371" y="214.857"/>
      <point x="695.273" y="236.918" type="curve" smooth="yes"/>
      <point x="700.43" y="260.102"/>
      <point x="709.434" y="286.977"/>
    </contour>
    <contour>
      <point x="195.576" y="594.691" type="curve" smooth="yes"/>
      <point x="139.6" y="458.354"/>
      <point x="173.008" y="298.012"/>
      <point x="278.77" y="195.365" type="curve" smooth="yes"/>
      <point x="321.807" y="153.471"/>
      <point x="340.879" y="135.766"/>
      <point x="364.756" y="108.695" type="curve" smooth="yes"/>
      <point x="383.818" y="87.0938"/>
      <point x="392.803" y="72.5234"/>
      <point x="392.803" y="72.5234" type="curve"/>
      <point x="392.803" y="72.5234"/>
      <point x="376.875" y="65.4824"/>
      <point x="345.312" y="68.1094" type="curve" smooth="yes"/>
      <point x="313.799" y="70.7266"/>
      <point x="264.482" y="83.9102"/>
      <point x="216.084" y="130.775" type="curve" smooth="yes"/>
      <point x="83.9844" y="258.998"/>
      <point x="42.4023" y="458.568"/>
      <point x="112.314" y="628.871" type="curve" smooth="yes"/>
      <point x="137.969" y="691.166"/>
      <point x="177.92" y="722.943"/>
      <point x="205.762" y="737.924" type="curve" smooth="yes"/>
      <point x="233.652" y="752.943"/>
      <point x="251.064" y="752.846"/>
      <point x="251.064" y="752.846" type="curve"/>
      <point x="251.064" y="752.846"/>
      <point x="248.652" y="735.902"/>
      <point x="239.805" y="708.48" type="curve" smooth="yes"/>
      <point x="228.711" y="674.125"/>
      <point x="218.311" y="650.277"/>
    </contour>
    <contour>
      <point x="478.955" y="73.2461" type="curve" smooth="yes"/>
      <point x="537.432" y="56.8691"/>
      <point x="602.031" y="84.5547"/>
      <point x="630.508" y="138.188" type="curve" smooth="yes"/>
      <point x="640.771" y="157.211"/>
      <point x="653.926" y="170.746"/>
      <point x="666.934" y="182.123" type="curve" smooth="yes"/>
      <point x="679.492" y="193.119"/>
      <point x="690.439" y="200.082"/>
      <point x="690.439" y="200.082" type="curve"/>
      <point x="690.439" y="200.082"/>
      <point x="702.207" y="194.086"/>
      <point x="711.68" y="177.133" type="curve" smooth="yes"/>
      <point x="720.684" y="161"/>
      <point x="728.252" y="130.736"/>
      <point x="710" y="96" type="curve" smooth="yes"/>
      <point x="661.855" y="5.29688"/>
      <point x="553.564" y="-41.1191"/>
      <point x="454.688" y="-13.4238" type="curve" smooth="yes"/>
      <point x="416.943" y="-2.68164"/>
      <point x="400.244" y="23.666"/>
      <point x="394.775" y="41.3223" type="curve" smooth="yes"/>
      <point x="389.033" y="59.8672"/>
      <point x="392.803" y="72.5234"/>
      <point x="392.803" y="72.5234" type="curve"/>
      <point x="392.803" y="72.5234"/>
      <point x="405.4" y="75.6484"/>
      <point x="422.021" y="77.1621" type="curve" smooth="yes"/>
      <point x="439.229" y="78.7344"/>
      <point x="458.105" y="78.9199"/>
    </contour>
  </outline>
</glyph>
