<?xml version="1.0" encoding="UTF-8"?>
<glyph name="x" format="1">
  <advance width="1000"/>
  <unicode hex="0078"/>
  <outline>
    <contour>
      <point x="719.314" y="-1.14648" type="curve"/>
      <point x="697.352" y="13.2969"/>
      <point x="630.75" y="48.3555"/>
      <point x="587.537" y="85.4844" type="curve" smooth="yes"/>
      <point x="535.486" y="130.211"/>
      <point x="485.486" y="198.873"/>
      <point x="434.471" y="255.562" type="curve" smooth="yes"/>
      <point x="383.445" y="312.262"/>
      <point x="320.408" y="369.176"/>
      <point x="281.395" y="425.641" type="curve" smooth="yes"/>
      <point x="249.012" y="472.516"/>
      <point x="221.131" y="542.428"/>
      <point x="209.08" y="565.787" type="curve"/>
      <point x="231.043" y="551.354"/>
      <point x="297.645" y="516.285"/>
      <point x="340.857" y="479.156" type="curve" smooth="yes"/>
      <point x="392.918" y="434.439"/>
      <point x="442.908" y="365.777"/>
      <point x="493.934" y="309.078" type="curve" smooth="yes"/>
      <point x="544.949" y="252.389"/>
      <point x="607.986" y="195.465"/>
      <point x="647" y="139" type="curve" smooth="yes"/>
      <point x="679.383" y="92.125"/>
      <point x="707.264" y="22.2129"/>
    </contour>
    <contour>
      <point x="209.08" y="-1.14648" type="curve"/>
      <point x="221.131" y="22.2129"/>
      <point x="249.012" y="92.125"/>
      <point x="281.395" y="139" type="curve" smooth="yes"/>
      <point x="320.408" y="195.465"/>
      <point x="383.445" y="252.389"/>
      <point x="434.471" y="309.078" type="curve" smooth="yes"/>
      <point x="485.486" y="365.777"/>
      <point x="535.486" y="434.439"/>
      <point x="587.537" y="479.156" type="curve" smooth="yes"/>
      <point x="630.75" y="516.285"/>
      <point x="697.352" y="551.354"/>
      <point x="719.314" y="565.787" type="curve"/>
      <point x="707.264" y="542.428"/>
      <point x="679.383" y="472.516"/>
      <point x="647" y="425.641" type="curve" smooth="yes"/>
      <point x="607.986" y="369.176"/>
      <point x="544.949" y="312.262"/>
      <point x="493.934" y="255.562" type="curve" smooth="yes"/>
      <point x="442.908" y="198.873"/>
      <point x="392.918" y="130.211"/>
      <point x="340.857" y="85.4844" type="curve" smooth="yes"/>
      <point x="297.645" y="48.3555"/>
      <point x="231.043" y="13.2969"/>
    </contour>
  </outline>
</glyph>
