<?xml version="1.0" encoding="UTF-8"?>
<glyph name="ao" format="1">
  <advance width="1009"/>
  <outline>
    <contour>
      <point x="648.488" y="168.629" type="curve" smooth="yes"/>
      <point x="612.551" y="180.758"/>
      <point x="575.646" y="193.785"/>
      <point x="541.691" y="211.891" type="curve" smooth="yes"/>
      <point x="507.736" y="229.996"/>
      <point x="475.666" y="253.727"/>
      <point x="454.768" y="289.107" type="curve" smooth="yes"/>
      <point x="438.645" y="317.066"/>
      <point x="447.062" y="341.598"/>
      <point x="456.369" y="354.166" type="curve" smooth="yes"/>
      <point x="466.184" y="367.428"/>
      <point x="477.873" y="371.588"/>
      <point x="477.873" y="371.588" type="curve"/>
      <point x="477.873" y="371.588"/>
      <point x="488.928" y="366.393"/>
      <point x="501.105" y="359.43" type="curve" smooth="yes"/>
      <point x="513.43" y="352.379"/>
      <point x="526.115" y="344.654"/>
      <point x="532.258" y="334.879" type="curve" smooth="yes"/>
      <point x="541.271" y="319.625"/>
      <point x="558.488" y="304.928"/>
      <point x="584.045" y="291.305" type="curve" smooth="yes"/>
      <point x="609.592" y="277.682"/>
      <point x="642.414" y="265.66"/>
      <point x="677.258" y="253.902" type="curve" smooth="yes"/>
      <point x="701.584" y="245.699"/>
      <point x="715.881" y="229.234"/>
      <point x="723.801" y="214.479" type="curve" smooth="yes"/>
      <point x="731.662" y="199.82"/>
      <point x="733" y="187.34"/>
      <point x="733" y="187.34" type="curve"/>
      <point x="733" y="187.34"/>
      <point x="723.898" y="178.697"/>
      <point x="709.035" y="171.969" type="curve" smooth="yes"/>
      <point x="694.27" y="165.289"/>
      <point x="673.312" y="160.24"/>
    </contour>
    <contour>
      <point x="277.902" y="536.227" type="curve" smooth="yes"/>
      <point x="287.736" y="514.518"/>
      <point x="304.836" y="494.693"/>
      <point x="328.664" y="477.125" type="curve" smooth="yes"/>
      <point x="352.492" y="459.557"/>
      <point x="382.814" y="444.645"/>
      <point x="416.164" y="433.434" type="curve" smooth="yes"/>
      <point x="461.652" y="418.102"/>
      <point x="477.873" y="371.588"/>
      <point x="477.873" y="371.588" type="curve"/>
      <point x="477.873" y="371.588"/>
      <point x="446.232" y="328.404"/>
      <point x="387.482" y="348.121" type="curve" smooth="yes"/>
      <point x="347.092" y="361.705"/>
      <point x="308.625" y="380.084"/>
      <point x="275.256" y="404.684" type="curve" smooth="yes"/>
      <point x="241.896" y="429.283"/>
      <point x="213.41" y="460.494"/>
      <point x="195.92" y="499.088" type="curve" smooth="yes"/>
      <point x="182.883" y="528.082"/>
      <point x="191.545" y="552.486"/>
      <point x="201.164" y="565.719" type="curve" smooth="yes"/>
      <point x="211.145" y="579.469"/>
      <point x="222.756" y="584.186"/>
      <point x="222.756" y="584.186" type="curve"/>
      <point x="222.756" y="584.186"/>
      <point x="233.811" y="578.619"/>
      <point x="245.959" y="570.143" type="curve" smooth="yes"/>
      <point x="258.254" y="561.559"/>
      <point x="271.096" y="551.041"/>
    </contour>
    <contour>
      <point x="457.941" y="291.148" type="curve" smooth="yes"/>
      <point x="445.852" y="268.316"/>
      <point x="435.109" y="235.982"/>
      <point x="424.377" y="201.305" type="curve" smooth="yes"/>
      <point x="413.654" y="166.627"/>
      <point x="402.854" y="129.625"/>
      <point x="386.965" y="95.2207" type="curve" smooth="yes"/>
      <point x="371.066" y="60.8164"/>
      <point x="349.436" y="26.998"/>
      <point x="312.766" y="6.64648" type="curve" smooth="yes"/>
      <point x="294.436" y="-3.5293"/>
      <point x="272.756" y="-9.42773"/>
      <point x="250.041" y="-9.86719" type="curve" smooth="yes"/>
      <point x="227.336" y="-10.3066"/>
      <point x="203.752" y="-5.6875"/>
      <point x="179.025" y="3.31641" type="curve" smooth="yes"/>
      <point x="179.025" y="3.31641"/>
      <point x="179.025" y="3.31641"/>
      <point x="179.025" y="3.31641" type="curve" smooth="yes"/>
      <point x="179.025" y="3.31641"/>
      <point x="179.025" y="3.31641"/>
      <point x="179.025" y="3.31641" type="curve" smooth="yes"/>
      <point x="139.182" y="17.8184"/>
      <point x="108.479" y="47.584"/>
      <point x="94.3184" y="83.4727" type="curve" smooth="yes"/>
      <point x="80.1582" y="119.361"/>
      <point x="81.3984" y="159.322"/>
      <point x="93.7617" y="197.32" type="curve" smooth="yes"/>
      <point x="118.488" y="273.307"/>
      <point x="187.189" y="345.055"/>
      <point x="292.648" y="384.898" type="curve" smooth="yes"/>
      <point x="355.275" y="408.326"/>
      <point x="406.867" y="401.168"/>
      <point x="435.217" y="392.584" type="curve" smooth="yes"/>
      <point x="465.256" y="383.482"/>
      <point x="477.873" y="371.588"/>
      <point x="477.873" y="371.588" type="curve"/>
      <point x="477.873" y="371.588"/>
      <point x="464.553" y="360.855"/>
      <point x="438.508" y="347.643" type="curve" smooth="yes"/>
      <point x="405.852" y="331.09"/>
      <point x="380.822" y="322.271"/>
      <point x="324.455" y="300.709" type="curve" smooth="yes"/>
      <point x="240.686" y="269.059"/>
      <point x="193.693" y="213.541"/>
      <point x="179.348" y="169.469" type="curve" smooth="yes"/>
      <point x="172.18" y="147.428"/>
      <point x="173.039" y="129.166"/>
      <point x="178.039" y="116.5" type="curve" smooth="yes"/>
      <point x="183.029" y="103.844"/>
      <point x="191.027" y="94.7227"/>
      <point x="209.807" y="87.8867" type="curve" smooth="yes"/>
      <point x="226.506" y="81.8125"/>
      <point x="239.133" y="79.9375"/>
      <point x="248.303" y="80.1133" type="curve" smooth="yes"/>
      <point x="257.463" y="80.2988"/>
      <point x="263.322" y="82.1348"/>
      <point x="269.084" y="85.3281" type="curve" smooth="yes"/>
      <point x="280.598" y="91.7246"/>
      <point x="293.381" y="107.242"/>
      <point x="305.256" y="132.965" type="curve" smooth="yes"/>
      <point x="317.141" y="158.688"/>
      <point x="327.482" y="192.623"/>
      <point x="338.4" y="227.896" type="curve" smooth="yes"/>
      <point x="349.309" y="263.18"/>
      <point x="360.705" y="299.84"/>
      <point x="378.4" y="333.258" type="curve" smooth="yes"/>
      <point x="394.689" y="368.072"/>
      <point x="427.512" y="380.27"/>
      <point x="447.473" y="380.689" type="curve" smooth="yes"/>
      <point x="468.254" y="381.119"/>
      <point x="477.873" y="371.588"/>
      <point x="477.873" y="371.588" type="curve"/>
      <point x="477.873" y="371.588"/>
      <point x="474.68" y="358.863"/>
      <point x="472.375" y="343.98" type="curve" smooth="yes"/>
      <point x="470.314" y="330.738"/>
      <point x="469.387" y="309.322"/>
    </contour>
    <contour>
      <point x="714.641" y="102.525" type="curve" smooth="yes"/>
      <point x="541.545" y="-80.1895" type="line"/>
      <point x="733" y="-261" type="line"/>
      <point x="924.445" y="-80.1895" type="line"/>
      <point x="751.35" y="102.525" type="line" smooth="yes"/>
      <point x="715.637" y="140.23"/>
      <point x="733" y="187.34"/>
      <point x="733" y="187.34" type="curve"/>
      <point x="733" y="187.34"/>
      <point x="780.969" y="202.125"/>
      <point x="816.691" y="164.43" type="curve" smooth="yes"/>
      <point x="1020.78" y="-51.0098" type="line" smooth="yes"/>
      <point x="1027.59" y="-58.1973"/>
      <point x="1033.12" y="-72.0645"/>
      <point x="1033.12" y="-81.957" type="curve" smooth="yes"/>
      <point x="1033.12" y="-92.6602"/>
      <point x="1026.8" y="-107.318"/>
      <point x="1019.02" y="-114.672" type="curve" smooth="yes"/>
      <point x="763.898" y="-355.619" type="line" smooth="yes"/>
      <point x="756.711" y="-362.396"/>
      <point x="742.873" y="-367.904"/>
      <point x="733" y="-367.904" type="curve" smooth="yes"/>
      <point x="723.117" y="-367.904"/>
      <point x="709.279" y="-362.396"/>
      <point x="702.102" y="-355.619" type="curve" smooth="yes"/>
      <point x="446.975" y="-114.672" type="line" smooth="yes"/>
      <point x="439.191" y="-107.318"/>
      <point x="432.873" y="-92.6699"/>
      <point x="432.873" y="-81.957" type="curve" smooth="yes"/>
      <point x="432.873" y="-72.0645"/>
      <point x="438.4" y="-58.1973"/>
      <point x="445.207" y="-51.0098" type="curve" smooth="yes"/>
      <point x="649.309" y="164.43" type="line" smooth="yes"/>
      <point x="685.021" y="202.125"/>
      <point x="733" y="187.34"/>
      <point x="733" y="187.34" type="curve"/>
      <point x="733" y="187.34"/>
      <point x="750.354" y="140.23"/>
    </contour>
  </outline>
</glyph>
