<?xml version="1.0" encoding="UTF-8"?>
<glyph name="n" format="1">
  <advance width="775"/>
  <unicode hex="006E"/>
  <outline>
    <contour>
      <point x="143.455" y="110.506" type="curve" smooth="yes"/>
      <point x="143.455" y="460.662" type="line" smooth="yes"/>
      <point x="143.455" y="540.037"/>
      <point x="188.455" y="574.051"/>
      <point x="188.455" y="574.051" type="curve"/>
      <point x="188.455" y="574.051"/>
      <point x="233.455" y="540.037"/>
      <point x="233.455" y="460.662" type="curve" smooth="yes"/>
      <point x="233.455" y="110.506" type="line" smooth="yes"/>
      <point x="233.455" y="31.1406"/>
      <point x="188.455" y="-2.88281"/>
      <point x="188.455" y="-2.88281" type="curve"/>
      <point x="188.455" y="-2.88281"/>
      <point x="143.455" y="31.1406"/>
    </contour>
    <contour>
      <point x="112.293" y="436.033" type="curve" smooth="yes"/>
      <point x="395.75" y="572.098" type="line"/>
      <point x="415.223" y="576.531" type="line"/>
      <point x="642" y="576.531" type="line"/>
      <point x="687" y="531.531" type="line"/>
      <point x="687" y="102" type="line" smooth="yes"/>
      <point x="687" y="28.582"/>
      <point x="642" y="-2.88281"/>
      <point x="642" y="-2.88281" type="curve"/>
      <point x="642" y="-2.88281"/>
      <point x="597" y="28.582"/>
      <point x="597" y="102" type="curve" smooth="yes"/>
      <point x="597" y="531.531" type="line"/>
      <point x="642" y="486.531" type="line"/>
      <point x="415.223" y="486.531" type="line"/>
      <point x="434.695" y="490.965" type="line"/>
      <point x="151.238" y="354.9" type="line" smooth="yes"/>
      <point x="101.629" y="331.092"/>
      <point x="60.8965" y="361.453"/>
      <point x="60.8965" y="361.453" type="curve"/>
      <point x="60.8965" y="361.453"/>
      <point x="62.6836" y="412.225"/>
    </contour>
  </outline>
  <lib>
    <dict>
      <key>com.fontlab.hintData</key>
      <dict>
        <key>hhints</key>
        <array>
          <dict>
            <key>position</key>
            <integer>1</integer>
            <key>width</key>
            <integer>21</integer>
          </dict>
          <dict>
            <key>position</key>
            <integer>528</integer>
            <key>width</key>
            <integer>80</integer>
          </dict>
          <dict>
            <key>position</key>
            <integer>548</integer>
            <key>width</key>
            <integer>20</integer>
          </dict>
        </array>
        <key>vhints</key>
        <array>
          <dict>
            <key>position</key>
            <integer>152</integer>
            <key>width</key>
            <integer>83</integer>
          </dict>
          <dict>
            <key>position</key>
            <integer>607</integer>
            <key>width</key>
            <integer>80</integer>
          </dict>
        </array>
      </dict>
    </dict>
  </lib>
</glyph>
