<?xml version="1.0" encoding="UTF-8"?>
<glyph name="N.random2" format="1">
  <advance width="709"/>
  <outline>
    <contour>
      <point x="72.1016" y="150.396" type="curve" smooth="yes"/>
      <point x="40.9883" y="320.436"/>
      <point x="67.0527" y="496.324"/>
      <point x="146.125" y="650.035" type="curve" smooth="yes"/>
      <point x="174.133" y="704.469"/>
      <point x="209.279" y="734.01"/>
      <point x="234.865" y="749.293" type="curve" smooth="yes"/>
      <point x="260.461" y="764.586"/>
      <point x="277.189" y="766.393"/>
      <point x="277.189" y="766.393" type="curve"/>
      <point x="277.189" y="766.393"/>
      <point x="274.367" y="702.594"/>
      <point x="226.154" y="608.863" type="curve" smooth="yes"/>
      <point x="156.154" y="472.809"/>
      <point x="133.088" y="317.105"/>
      <point x="160.627" y="166.598" type="curve" smooth="yes"/>
      <point x="179.592" y="62.916"/>
      <point x="163.801" y="1.04102"/>
      <point x="163.801" y="1.04102" type="curve"/>
      <point x="163.801" y="1.04102"/>
      <point x="94.7285" y="26.7441"/>
    </contour>
    <contour>
      <point x="580.764" y="629.947" type="curve" smooth="yes"/>
      <point x="539.885" y="463.307"/>
      <point x="706.369" y="220.289"/>
      <point x="631.281" y="14" type="curve"/>
      <point x="560.07" y="-5.08203" type="line"/>
      <point x="378.283" y="147.457"/>
      <point x="263.898" y="362.359"/>
      <point x="236.369" y="593.756" type="curve" smooth="yes"/>
      <point x="221.457" y="719.049"/>
      <point x="277.189" y="766.393"/>
      <point x="277.189" y="766.393" type="curve"/>
      <point x="277.189" y="766.393"/>
      <point x="312.873" y="712.418"/>
      <point x="325.734" y="604.391" type="curve" smooth="yes"/>
      <point x="350.578" y="395.592"/>
      <point x="453.82" y="201.559"/>
      <point x="617.922" y="63.8633" type="curve"/>
      <point x="546.711" y="44.7812" type="line"/>
      <point x="609.729" y="217.916"/>
      <point x="444.23" y="451.129"/>
      <point x="493.361" y="651.383" type="curve" smooth="yes"/>
      <point x="509.191" y="713.824"/>
      <point x="548.342" y="743.98"/>
      <point x="574.67" y="756.422" type="curve" smooth="yes"/>
      <point x="601.086" y="768.893"/>
      <point x="617.346" y="766.393"/>
      <point x="617.346" y="766.393" type="curve"/>
      <point x="617.346" y="766.393"/>
      <point x="614.855" y="750.572"/>
      <point x="608.146" y="726.285" type="curve" smooth="yes"/>
      <point x="601.438" y="702.027"/>
      <point x="590.256" y="670.719"/>
    </contour>
  </outline>
  <lib>
    <dict>
      <key>com.fontlab.hintData</key>
      <dict>
        <key>vhints</key>
        <array>
          <dict>
            <key>position</key>
            <integer>553</integer>
            <key>width</key>
            <integer>80</integer>
          </dict>
        </array>
      </dict>
    </dict>
  </lib>
</glyph>
