; Engine configuration file.
; It's best edited using the editor UI and not directly,
; since the parameters that go here are not all obvious.
;
; Format:
;   [section] ; section goes between []
;   param=value ; assign values to parameters

config_version=4

_global_script_classes=[  ]
_global_script_class_icons={

}

[application]

config/name="fond"
run/main_scene="res://Main.tscn"
config/icon="res://icon.png"

[autoload]

global="*res://global.gd"

[layer_names]

2d_render/layer_1="Personnage 1"
2d_render/layer_2="Personnage 2"
2d_render/layer_3="Fond génératif"

[rendering]

environment/default_environment="res://default_env.tres"
