[gd_scene load_steps=2 format=2]

[ext_resource path="res://scripts/ButtonHela.gd" type="Script" id=1]

[node name="ButtonHela" type="Button"]
focus_mode = 0
script = ExtResource( 1 )
__meta__ = {
"_edit_use_anchors_": false
}
