[gd_scene load_steps=8 format=2]

[ext_resource path="res://environment/fond_cellules.png" type="Texture" id=1]
[ext_resource path="res://shaders/Liquid_flat.shader" type="Shader" id=2]

[sub_resource type="OpenSimplexNoise" id=1]
seed = 1

[sub_resource type="NoiseTexture" id=2]
seamless = true
noise = SubResource( 1 )

[sub_resource type="OpenSimplexNoise" id=3]
seed = 5

[sub_resource type="NoiseTexture" id=4]
seamless = true
noise = SubResource( 3 )

[sub_resource type="ShaderMaterial" id=5]
shader = ExtResource( 2 )
shader_param/size = Vector2( 100, 100 )
shader_param/scale = Vector2( 0.2, 0.2 )
shader_param/tile_factor = Vector2( 1, 1 )
shader_param/deformation_speed = 0.05
shader_param/deformation_size = Vector2( 0.1, 0.05 )
shader_param/noise1 = SubResource( 2 )
shader_param/noise2 = SubResource( 4 )

[node name="Polygon2D" type="Sprite"]
material = SubResource( 5 )
texture = ExtResource( 1 )
