[gd_scene load_steps=3 format=2]

[ext_resource path="res://environment/videa_plante13.png" type="Texture" id=1]

[sub_resource type="CircleShape2D" id=1]
radius = 55.3622

[node name="StaticBody2D" type="StaticBody2D"]

[node name="AnimatedSprite" type="Sprite" parent="."]
scale = Vector2( 0.4, 0.4 )
texture = ExtResource( 1 )

[node name="CollisionShape2D" type="CollisionShape2D" parent="."]
position = Vector2( 0.245453, 63.1066 )
shape = SubResource( 1 )
