[gd_scene load_steps=3 format=2]

[ext_resource path="res://environment/videa_plante1.png" type="Texture" id=1]

[sub_resource type="CircleShape2D" id=1]
radius = 40.0662

[node name="StaticBody2D" type="StaticBody2D"]

[node name="AnimatedSprite" type="Sprite" parent="."]
scale = Vector2( 0.15, 0.15 )
texture = ExtResource( 1 )

[node name="CollisionShape2D" type="CollisionShape2D" parent="."]
position = Vector2( 1.18936, 13.0813 )
shape = SubResource( 1 )
