[gd_scene load_steps=2 format=2]

[ext_resource path="res://scripts/TimeLeft.gd" type="Script" id=1]

[node name="TimeLeft" type="Label"]
margin_right = 40.0
margin_bottom = 14.0
align = 1
script = ExtResource( 1 )
__meta__ = {
"_edit_use_anchors_": false
}
