[gd_scene load_steps=4 format=2]

[ext_resource path="res://icon.png" type="Texture" id=1]
[ext_resource path="res://scripts/Tuto.gd" type="Script" id=2]


[sub_resource type="CapsuleShape2D" id=1]
radius = 104.583
height = 0.330719

[node name="Tuto" type="Area2D"]
script = ExtResource( 2 )

[node name="Sprite" type="Sprite" parent="."]
texture = ExtResource( 1 )

[node name="CollisionShape2D" type="CollisionShape2D" parent="."]
shape = SubResource( 1 )
