<?xml version="1.0" encoding="UTF-8"?>
<glyph name="degree" format="1">
  <advance width="454"/>
  <unicode hex="00B0"/>
  <outline>
    <contour>
      <point x="96.5898" y="771.332" type="curve" smooth="yes"/>
      <point x="181.629" y="856.371" type="line"/>
      <point x="245.271" y="856.371" type="line"/>
      <point x="387" y="714.643" type="line"/>
      <point x="387" y="651" type="line"/>
      <point x="245.271" y="509.271" type="line"/>
      <point x="181.629" y="509.271" type="line"/>
      <point x="96.5898" y="594.311" type="line" smooth="yes"/>
      <point x="56.9023" y="633.988"/>
      <point x="71.7168" y="682.816"/>
      <point x="71.7168" y="682.816" type="curve"/>
      <point x="71.7168" y="682.816"/>
      <point x="120.545" y="697.631"/>
      <point x="160.232" y="657.943" type="curve" smooth="yes"/>
      <point x="245.271" y="572.904" type="line"/>
      <point x="181.629" y="572.904" type="line"/>
      <point x="323.367" y="714.643" type="line"/>
      <point x="323.367" y="651" type="line"/>
      <point x="181.629" y="792.729" type="line"/>
      <point x="245.271" y="792.729" type="line"/>
      <point x="160.232" y="707.689" type="line" smooth="yes"/>
      <point x="120.545" y="668.012"/>
      <point x="71.7168" y="682.816"/>
      <point x="71.7168" y="682.816" type="curve"/>
      <point x="71.7168" y="682.816"/>
      <point x="56.9023" y="731.645"/>
    </contour>
  </outline>
</glyph>
