<?xml version="1.0" encoding="UTF-8"?>
<glyph name="parenright" format="1">
  <advance width="541"/>
  <unicode hex="0029"/>
  <outline>
    <contour>
      <point x="173.848" y="84.4336" type="curve" smooth="yes"/>
      <point x="292.1" y="128.066"/>
      <point x="376.221" y="241.885"/>
      <point x="376.221" y="374.98" type="curve" smooth="yes"/>
      <point x="376.221" y="508.076"/>
      <point x="292.1" y="621.895"/>
      <point x="173.848" y="665.527" type="curve" smooth="yes"/>
      <point x="142.139" y="677.236"/>
      <point x="120.254" y="691.807"/>
      <point x="104.756" y="704.912" type="curve" smooth="yes"/>
      <point x="89.2676" y="718.018"/>
      <point x="81.0645" y="729.307"/>
      <point x="81.0645" y="729.307" type="curve"/>
      <point x="81.0645" y="729.307"/>
      <point x="89.541" y="740.615"/>
      <point x="109.902" y="749.619" type="curve" smooth="yes"/>
      <point x="129.668" y="758.359"/>
      <point x="163.535" y="765.244"/>
      <point x="205" y="749.961" type="curve" smooth="yes"/>
      <point x="358.223" y="693.428"/>
      <point x="466.221" y="546.25"/>
      <point x="466.221" y="374.98" type="curve" smooth="yes"/>
      <point x="466.221" y="203.711"/>
      <point x="358.223" y="56.5332"/>
      <point x="205" y="0" type="curve" smooth="yes"/>
      <point x="163.535" y="-15.2832"/>
      <point x="129.668" y="-8.39844"/>
      <point x="109.902" y="0.341797" type="curve" smooth="yes"/>
      <point x="89.541" y="9.3457"/>
      <point x="81.0645" y="20.6543"/>
      <point x="81.0645" y="20.6543" type="curve"/>
      <point x="81.0645" y="20.6543"/>
      <point x="89.2676" y="31.9434"/>
      <point x="104.756" y="45.0488" type="curve" smooth="yes"/>
      <point x="120.254" y="58.1543"/>
      <point x="142.139" y="72.7246"/>
    </contour>
  </outline>
  <lib>
    <dict>
      <key>com.fontlab.hintData</key>
      <dict>
        <key>vhints</key>
        <array>
          <dict>
            <key>position</key>
            <integer>459</integer>
            <key>width</key>
            <integer>80</integer>
          </dict>
        </array>
      </dict>
    </dict>
  </lib>
</glyph>
