<?xml version="1.0" encoding="UTF-8"?>
<glyph name="zero" format="1">
  <advance width="817"/>
  <unicode hex="0030"/>
  <outline>
    <contour>
      <point x="734.082" y="268.957" type="curve" smooth="yes"/>
      <point x="696.055" y="115.871"/>
      <point x="582.275" y="-12"/>
      <point x="420" y="-12" type="curve" smooth="yes"/>
      <point x="218.086" y="-12"/>
      <point x="91.5332" y="184.406"/>
      <point x="91.5332" y="387.336" type="curve" smooth="yes"/>
      <point x="91.5332" y="590.256"/>
      <point x="218.086" y="786.662"/>
      <point x="420" y="786.662" type="curve" smooth="yes"/>
      <point x="582.275" y="786.662"/>
      <point x="696.055" y="658.791"/>
      <point x="734.082" y="505.705" type="curve" smooth="yes"/>
      <point x="744.238" y="464.758"/>
      <point x="735.156" y="433.117"/>
      <point x="725.195" y="414.387" type="curve" smooth="yes"/>
      <point x="715" y="395.227"/>
      <point x="703.467" y="387.336"/>
      <point x="703.467" y="387.336" type="curve"/>
      <point x="703.467" y="387.336"/>
      <point x="692.441" y="395.734"/>
      <point x="680.264" y="411.828" type="curve" smooth="yes"/>
      <point x="668.076" y="427.922"/>
      <point x="654.961" y="450.949"/>
      <point x="646.738" y="484.006" type="curve" smooth="yes"/>
      <point x="616.299" y="606.564"/>
      <point x="531.523" y="696.662"/>
      <point x="420" y="696.662" type="curve" smooth="yes"/>
      <point x="279.658" y="696.662"/>
      <point x="181.533" y="552.492"/>
      <point x="181.533" y="387.336" type="curve" smooth="yes"/>
      <point x="181.533" y="222.17"/>
      <point x="279.658" y="78"/>
      <point x="420" y="78" type="curve" smooth="yes"/>
      <point x="531.523" y="78"/>
      <point x="616.299" y="168.098"/>
      <point x="646.738" y="290.656" type="curve" smooth="yes"/>
      <point x="654.961" y="323.713"/>
      <point x="668.076" y="346.74"/>
      <point x="680.264" y="362.834" type="curve" smooth="yes"/>
      <point x="692.441" y="378.928"/>
      <point x="703.467" y="387.336"/>
      <point x="703.467" y="387.336" type="curve"/>
      <point x="703.467" y="387.336"/>
      <point x="715" y="379.436"/>
      <point x="725.195" y="360.275" type="curve" smooth="yes"/>
      <point x="735.156" y="341.545"/>
      <point x="744.238" y="309.904"/>
    </contour>
    <contour>
      <point x="294.102" y="354.621" type="curve" smooth="yes"/>
      <point x="498.193" y="482.18" type="line" smooth="yes"/>
      <point x="545.82" y="511.945"/>
      <point x="590.078" y="486.545"/>
      <point x="590.078" y="486.545" type="curve"/>
      <point x="590.078" y="486.545"/>
      <point x="593.516" y="435.627"/>
      <point x="545.898" y="405.861" type="curve" smooth="yes"/>
      <point x="341.797" y="278.303" type="line" smooth="yes"/>
      <point x="294.18" y="248.537"/>
      <point x="249.922" y="273.947"/>
      <point x="249.922" y="273.947" type="curve"/>
      <point x="249.922" y="273.947"/>
      <point x="246.475" y="324.855"/>
    </contour>
  </outline>
  <lib>
    <dict>
      <key>com.fontlab.hintData</key>
      <dict>
        <key>hhints</key>
        <array>
          <dict>
            <key>position</key>
            <integer>-22</integer>
            <key>width</key>
            <integer>90</integer>
          </dict>
          <dict>
            <key>position</key>
            <integer>743</integer>
            <key>width</key>
            <integer>90</integer>
          </dict>
        </array>
        <key>vhints</key>
        <array>
          <dict>
            <key>position</key>
            <integer>81</integer>
            <key>width</key>
            <integer>90</integer>
          </dict>
        </array>
      </dict>
    </dict>
  </lib>
</glyph>
